<?xml version="1.0" encoding="UTF-8" standalone="no"?>
<!-- Created with Friction - https://friction.graphics -->

<svg xmlns="http://www.w3.org/2000/svg" xmlns:xlink="http://www.w3.org/1999/xlink" viewBox="0 0 540 100">
 <g transform="translate(67.5 79.4013)">
  <g transform="translate(6.16628 -2.20218)">
   <g transform="rotate(0)">
    <g transform="scale(1 1)">
     <g transform="skewX(0) skewY(0)">
      <g opacity="1" transform="translate(-67.5 -79.4013)">
       <path stroke-width="0" stroke="none" d="M100 93.3013C100 93.3013 35 93.3013 35 93.3013C35 93.3013 42 84.8013 42 84.8013C42 84.8013 35 76.3013 35 76.3013C35 76.3013 70.2 76.3013 70.2 76.3013C70.2 76.3013 70.3 75.8013 70.3 75.8013C70.3 75.8013 74.1 65.5013 74.1 65.5013C74.1 65.5013 85 67.3013 85 67.3013C85 67.3013 100 93.3013 100 93.3013Z">
        <animate calcMode="linear" values="rgba(0, 132, 67, 1);rgba(0, 132, 67, 1);rgba(0, 132, 67, 0.899992);rgba(0, 132, 67, 0.8);rgba(0, 132, 67, 0.700008);rgba(0, 132, 67, 0.599985);rgba(0, 132, 67, 0.500008);rgba(0, 132, 67, 0.400015);rgba(0, 132, 67, 0.299992);rgba(0, 132, 67, 0.2);rgba(0, 132, 67, 0.100008);rgba(0, 132, 67, 0);rgba(0, 132, 67, 0.100008);rgba(0, 132, 67, 0.2);rgba(0, 132, 67, 0.299992);rgba(0, 132, 67, 0.400015);rgba(0, 132, 67, 0.500008);rgba(0, 132, 67, 0.599985);rgba(0, 132, 67, 0.700008);rgba(0, 132, 67, 0.8);rgba(0, 132, 67, 0.899992);rgba(0, 132, 67, 1);rgba(0, 132, 67, 1)" keyTimes="0;0.0714286;0.0857143;0.1;0.114286;0.128571;0.142857;0.157143;0.171429;0.185714;0.2;0.214286;0.228571;0.242857;0.257143;0.271429;0.285714;0.3;0.314286;0.328571;0.342857;0.357143;1" dur="2.33333s" attributeName="fill" repeatCount="indefinite"/>
       </path>
      </g>
     </g>
    </g>
   </g>
  </g>
 </g>
 <g transform="translate(58.7417 39.0946)">
  <g transform="translate(6.16628 -2.20218)">
   <g transform="rotate(0)">
    <g transform="scale(1 1)">
     <g transform="skewX(0) skewY(0)">
      <g opacity="1" transform="translate(-58.7417 -39.0946)">
       <path stroke-width="0" stroke="none" d="M71.6388 61.1782C71.6388 61.1782 67.7776 71.4904 67.7776 71.4904C67.7776 71.4904 50.1776 41.0063 50.1776 41.0063C50.1776 41.0063 49.6946 41.1697 49.6946 41.1697C49.6946 41.1697 38.8745 43.0288 38.8745 43.0288C38.8745 43.0288 34.9833 32.6891 34.9833 32.6891C34.9833 32.6891 50 6.69873 50 6.69873C50 6.69873 82.5 62.9904 82.5 62.9904C82.5 62.9904 71.6388 61.1782 71.6388 61.1782Z">
        <animate calcMode="linear" values="rgba(0, 132, 67, 1);rgba(0, 132, 67, 1);rgba(0, 132, 67, 0.899992);rgba(0, 132, 67, 0.8);rgba(0, 132, 67, 0.700008);rgba(0, 132, 67, 0.599985);rgba(0, 132, 67, 0.500008);rgba(0, 132, 67, 0.400015);rgba(0, 132, 67, 0.299992);rgba(0, 132, 67, 0.2);rgba(0, 132, 67, 0.100008);rgba(0, 132, 67, 0);rgba(0, 132, 67, 0.100008);rgba(0, 132, 67, 0.2);rgba(0, 132, 67, 0.299992);rgba(0, 132, 67, 0.400015);rgba(0, 132, 67, 0.500008);rgba(0, 132, 67, 0.599985);rgba(0, 132, 67, 0.700008);rgba(0, 132, 67, 0.8);rgba(0, 132, 67, 0.899992);rgba(0, 132, 67, 1);rgba(0, 132, 67, 1)" keyTimes="0;0.357143;0.371429;0.385714;0.4;0.414286;0.428571;0.442857;0.457143;0.471429;0.485714;0.5;0.514286;0.528571;0.542857;0.557143;0.571429;0.585714;0.6;0.614286;0.628571;0.642857;1" dur="2.33333s" attributeName="fill" repeatCount="indefinite"/>
       </path>
      </g>
     </g>
    </g>
   </g>
  </g>
 </g>
 <g transform="translate(23.6112 65.1603)">
  <g transform="translate(6.16628 -2.20218)">
   <g transform="rotate(0)">
    <g transform="scale(1 1)">
     <g transform="skewX(0) skewY(0)">
      <g opacity="1" transform="translate(-23.6112 -65.1603)">
       <path stroke-width="0" stroke="none" d="M4.87325e-07 93.3013C4.87325e-07 93.3013 32.5 37.0096 32.5 37.0096C32.5 37.0096 36.3612 47.3218 36.3612 47.3218C36.3612 47.3218 47.2224 45.5096 47.2224 45.5096C47.2224 45.5096 29.6224 75.9937 29.6224 75.9937C29.6224 75.9937 30.0054 76.3303 30.0054 76.3303C30.0054 76.3303 37.0255 84.7712 37.0255 84.7712C37.0255 84.7712 30.0167 93.3109 30.0167 93.3109C30.0167 93.3109 4.87325e-07 93.3013 4.87325e-07 93.3013Z">
        <animate calcMode="linear" values="rgba(0, 132, 67, 1);rgba(0, 132, 67, 1);rgba(0, 132, 67, 0.899992);rgba(0, 132, 67, 0.8);rgba(0, 132, 67, 0.700008);rgba(0, 132, 67, 0.599985);rgba(0, 132, 67, 0.500008);rgba(0, 132, 67, 0.400015);rgba(0, 132, 67, 0.299992);rgba(0, 132, 67, 0.2);rgba(0, 132, 67, 0.100008);rgba(0, 132, 67, 0);rgba(0, 132, 67, 0.100008);rgba(0, 132, 67, 0.2);rgba(0, 132, 67, 0.299992);rgba(0, 132, 67, 0.400015);rgba(0, 132, 67, 0.500008);rgba(0, 132, 67, 0.599985);rgba(0, 132, 67, 0.700008);rgba(0, 132, 67, 0.8);rgba(0, 132, 67, 0.899992);rgba(0, 132, 67, 1);rgba(0, 132, 67, 1)" keyTimes="0;0.642857;0.657143;0.671429;0.685714;0.7;0.714286;0.728571;0.742857;0.757143;0.771429;0.785714;0.8;0.814286;0.828571;0.842857;0.857143;0.871429;0.885714;0.9;0.914286;0.928571;1" dur="2.33333s" attributeName="fill" repeatCount="indefinite"/>
       </path>
      </g>
     </g>
    </g>
   </g>
  </g>
 </g>
 <g transform="translate(322.279 58.24)">
  <g transform="translate(6.16628 -2.20218)">
   <g transform="rotate(0)">
    <g transform="scale(1 1)">
     <g transform="skewX(0) skewY(0)">
      <g opacity="1" transform="translate(-322.279 -58.24)">
       <g>
        <g transform="translate(322.279 59.62)">
         <g transform="translate(0 0)">
          <g transform="rotate(0)">
           <g transform="scale(1 1)">
            <g transform="skewX(0) skewY(0)">
             <g opacity="1" transform="translate(-322.279 -59.62)">
              <path stroke-width="0" stroke="none" fill="rgba(255, 255, 255, 1)" d="M116.667 86.576C116.667 86.576 116.667 40.4533 116.667 40.4533C116.667 40.4533 121.635 40.4533 121.635 40.4533C121.635 40.4533 122.555 44.1333 122.555 44.1333C122.555 44.1333 122.861 44.1333 122.861 44.1333C123.72 43.52 124.701 42.8862 125.805 42.232C126.909 41.5369 128.136 40.944 129.485 40.4533C130.876 39.9218 132.368 39.656 133.963 39.656C136.252 39.656 138.276 40.2898 140.035 41.5573C141.793 42.784 143.163 44.7467 144.144 47.4453C145.125 50.1031 145.616 53.5582 145.616 57.8107C145.616 61.7769 145.187 65.0275 144.328 67.5627C143.51 70.0569 142.406 72.0195 141.016 73.4507C139.667 74.8409 138.133 75.8222 136.416 76.3947C134.74 76.9262 133.063 77.192 131.387 77.192C130.446 77.192 129.465 77.1511 128.443 77.0693C127.42 76.9875 126.521 76.8853 125.744 76.7627C125.008 76.6809 124.538 76.6195 124.333 76.5787C124.333 76.5787 124.333 86.576 124.333 86.576C124.333 86.576 116.667 86.576 116.667 86.576ZM131.632 70.8133C132.368 70.8133 133.022 70.752 133.595 70.6293C134.208 70.5067 134.74 70.2818 135.189 69.9547C135.68 69.5867 136.109 68.9733 136.477 68.1147C136.845 67.256 137.132 65.968 137.336 64.2507C137.581 62.5333 137.704 60.2027 137.704 57.2587C137.704 55.0915 137.643 53.3538 137.52 52.0453C137.438 50.696 137.295 49.6533 137.091 48.9173C136.886 48.1404 136.62 47.5884 136.293 47.2613C136.048 46.9342 135.7 46.6684 135.251 46.464C134.801 46.2596 134.106 46.1573 133.165 46.1573C131.98 46.1573 130.732 46.3618 129.424 46.7707C128.156 47.1387 127.032 47.568 126.051 48.0587C125.11 48.5493 124.538 48.8969 124.333 49.1013C124.333 49.1013 124.333 69.7707 124.333 69.7707C124.701 69.8524 125.601 70.0569 127.032 70.384C128.463 70.6702 129.996 70.8133 131.632 70.8133C131.632 70.8133 131.632 70.8133 131.632 70.8133ZM167.451 77.192C163.73 77.192 160.786 76.4355 158.619 74.9226C156.452 73.3689 154.898 71.2018 153.957 68.4213C153.058 65.6 152.608 62.2675 152.608 58.424C152.608 54.5804 153.058 51.2684 153.957 48.488C154.898 45.6667 156.452 43.4995 158.619 41.9867C160.786 40.4329 163.73 39.656 167.451 39.656C171.212 39.656 174.156 40.4329 176.283 41.9867C178.45 43.4995 179.983 45.6667 180.883 48.488C181.782 51.2684 182.232 54.5804 182.232 58.424C182.232 62.2675 181.782 65.6 180.883 68.4213C179.983 71.2018 178.45 73.3689 176.283 74.9226C174.156 76.4355 171.212 77.192 167.451 77.192ZM167.451 71.12C168.8 71.12 169.904 70.9564 170.763 70.6293C171.662 70.2613 172.378 69.6275 172.909 68.728C173.482 67.8284 173.87 66.5404 174.075 64.864C174.279 63.1875 174.381 61.0409 174.381 58.424C174.381 55.8071 174.259 53.6604 174.013 51.984C173.809 50.3075 173.441 49.0195 172.909 48.12C172.378 47.2204 171.662 46.6071 170.763 46.28C169.904 45.9529 168.8 45.7893 167.451 45.7893C166.101 45.7893 164.977 45.9529 164.077 46.28C163.219 46.6071 162.503 47.2204 161.931 48.12C161.399 49.0195 161.011 50.3075 160.765 51.984C160.561 53.6604 160.459 55.8071 160.459 58.424C160.459 61.0409 160.561 63.1875 160.765 64.864C161.011 66.5404 161.399 67.8284 161.931 68.728C162.503 69.6275 163.219 70.2613 164.077 70.6293C164.977 70.9564 166.101 71.12 167.451 71.12ZM202.104 77.192C200.346 77.192 198.669 77.008 197.075 76.64C195.48 76.3129 194.049 75.9449 192.781 75.536C191.514 75.0862 190.492 74.6978 189.715 74.3707C189.715 74.3707 188.611 73.88 188.611 73.88C188.611 73.88 190.512 67.6853 190.512 67.6853C190.512 67.6853 191.616 68.176 191.616 68.176C192.393 68.4622 193.395 68.8302 194.621 69.28C195.848 69.6889 197.177 70.0569 198.608 70.384C200.08 70.6702 201.47 70.8133 202.779 70.8133C203.515 70.8133 204.148 70.752 204.68 70.6293C205.252 70.5067 205.682 70.3227 205.968 70.0773C206.377 69.7502 206.704 69.3004 206.949 68.728C207.195 68.1146 207.317 67.4195 207.317 66.6426C207.317 65.3342 206.949 64.3324 206.213 63.6373C205.518 62.9422 204.578 62.3902 203.392 61.9813C202.247 61.5315 200.959 61.1227 199.528 60.7547C198.301 60.3458 197.054 59.9369 195.787 59.528C194.519 59.0782 193.354 58.4853 192.291 57.7493C191.268 56.9724 190.43 55.9706 189.776 54.744C189.163 53.5173 188.856 51.9227 188.856 49.96C188.856 46.8933 189.858 44.4195 191.861 42.5387C193.865 40.6169 197.136 39.656 201.675 39.656C203.31 39.656 204.884 39.7787 206.397 40.024C207.951 40.2284 209.321 40.4738 210.507 40.76C211.692 41.0462 212.592 41.2915 213.205 41.496C213.205 41.496 212.04 47.6293 212.04 47.6293C212.04 47.6293 210.997 47.384 210.997 47.384C210.343 47.2204 209.464 47.0364 208.36 46.832C207.256 46.5867 206.05 46.3822 204.741 46.2187C203.433 46.0551 202.145 45.9733 200.877 45.9733C199.773 45.9733 198.935 46.0347 198.363 46.1573C197.831 46.28 197.443 46.464 197.197 46.7093C196.952 46.8729 196.727 47.1795 196.523 47.6293C196.359 48.0382 196.277 48.5493 196.277 49.1627C196.277 50.3893 196.666 51.3502 197.443 52.0453C198.219 52.6995 199.221 53.2311 200.448 53.64C201.715 54.0489 203.044 54.4578 204.435 54.8666C205.661 55.2346 206.888 55.6435 208.115 56.0933C209.341 56.5022 210.466 57.0951 211.488 57.872C212.51 58.608 213.328 59.5893 213.941 60.816C214.555 62.0426 214.861 63.6169 214.861 65.5386C214.861 69.0142 213.757 71.8355 211.549 74.0026C209.382 76.1289 206.234 77.192 202.104 77.192C202.104 77.192 202.104 77.192 202.104 77.192ZM233.2 77.192C231.196 77.192 229.479 76.8853 228.048 76.272C226.617 75.6586 225.513 74.4524 224.736 72.6533C223.959 70.8542 223.571 68.2169 223.571 64.7413C223.571 64.7413 223.571 48.2427 223.571 48.2427C223.571 48.2427 219.461 48.2427 219.461 48.2427C219.461 48.2427 219.461 43.3973 219.461 43.3973C219.461 43.3973 223.939 42.5387 223.939 42.5387C223.939 42.5387 225.288 34.0747 225.288 34.0747C225.288 34.0747 231.36 34.0747 231.36 34.0747C231.36 34.0747 231.36 42.416 231.36 42.416C231.36 42.416 238.597 42.416 238.597 42.416C238.597 42.416 238.597 48.3653 238.597 48.3653C238.597 48.3653 231.299 48.3653 231.299 48.3653C231.299 48.3653 231.299 65.048 231.299 65.048C231.299 66.7653 231.36 68.0329 231.483 68.8506C231.646 69.6684 231.953 70.1795 232.403 70.384C232.852 70.5884 233.507 70.6906 234.365 70.6906C234.979 70.6906 235.592 70.6702 236.205 70.6293C236.859 70.5884 237.391 70.5475 237.8 70.5066C237.8 70.5066 238.475 70.4453 238.475 70.4453C238.475 70.4453 238.475 76.7013 238.475 76.7013C238.475 76.7013 236.941 76.9466 236.941 76.9466C235.96 77.1102 234.713 77.192 233.2 77.192C233.2 77.192 233.2 77.192 233.2 77.192ZM246.509 76.3946C246.509 76.3946 246.509 40.4533 246.509 40.4533C246.509 40.4533 251.477 40.4533 251.477 40.4533C251.477 40.4533 252.397 44.072 252.397 44.072C252.397 44.072 252.704 44.072 252.704 44.072C253.276 43.704 254.012 43.2747 254.912 42.784C255.811 42.2933 256.793 41.8027 257.856 41.312C258.96 40.8213 260.125 40.4124 261.352 40.0853C262.579 39.7582 263.805 39.5947 265.032 39.5947C266.954 39.5947 268.548 40.024 269.816 40.8827C271.124 41.7004 272.085 42.8249 272.699 44.256C274.375 43.1929 276.235 42.1502 278.28 41.128C280.365 40.1058 282.614 39.5947 285.027 39.5947C287.398 39.5947 289.238 40.1671 290.547 41.312C291.896 42.416 292.836 43.9698 293.368 45.9733C293.899 47.936 294.165 50.2258 294.165 52.8427C294.165 52.8427 294.165 76.3946 294.165 76.3946C294.165 76.3946 286.376 76.3946 286.376 76.3946C286.376 76.3946 286.376 54.4987 286.376 54.4987C286.376 52.7404 286.335 51.3093 286.253 50.2053C286.171 49.0604 285.926 48.2018 285.517 47.6293C285.19 47.1796 284.74 46.8729 284.168 46.7093C283.636 46.5458 283.105 46.464 282.573 46.464C281.796 46.464 280.979 46.5867 280.12 46.832C279.261 47.0364 278.423 47.3022 277.605 47.6293C276.828 47.9564 276.113 48.2835 275.459 48.6107C274.845 48.9378 274.355 49.224 273.987 49.4693C274.027 50.0418 274.068 50.6347 274.109 51.248C274.15 51.8204 274.171 52.4338 274.171 53.088C274.171 53.088 274.171 76.3947 274.171 76.3947C274.171 76.3947 266.443 76.3947 266.443 76.3947C266.443 76.3947 266.443 54.4373 266.443 54.4373C266.443 52.4747 266.402 50.9822 266.32 49.96C266.238 48.9378 265.993 48.1404 265.584 47.568C265.216 47.1182 264.766 46.832 264.234 46.7093C263.744 46.5458 263.253 46.464 262.763 46.464C261.74 46.464 260.677 46.6275 259.573 46.9547C258.51 47.2818 257.508 47.6702 256.568 48.12C255.627 48.5289 254.83 48.9173 254.176 49.2853C254.176 49.2853 254.176 76.3946 254.176 76.3946C254.176 76.3946 246.509 76.3946 246.509 76.3946ZM312.075 77.192C310.153 77.192 308.435 76.7422 306.923 75.8426C305.41 74.9431 304.203 73.6346 303.304 71.9173C302.404 70.1591 301.955 68.0533 301.955 65.6C301.955 62.656 302.588 60.3458 303.856 58.6693C305.164 56.9929 306.963 55.7867 309.253 55.0507C311.584 54.3147 314.323 53.9467 317.472 53.9467C317.472 53.9467 322.808 53.9467 322.808 53.9467C322.808 52.0658 322.747 50.5938 322.624 49.5307C322.501 48.4675 322.256 47.6907 321.888 47.2C321.602 46.7911 321.172 46.4844 320.6 46.28C320.027 46.0756 319.169 45.9733 318.024 45.9733C316.511 45.9733 314.978 46.1164 313.424 46.4027C311.87 46.648 310.439 46.9547 309.131 47.3227C307.822 47.6907 306.759 48.0178 305.941 48.304C305.941 48.304 304.715 48.672 304.715 48.672C304.715 48.672 302.813 43.0293 302.813 43.0293C302.813 43.0293 304.04 42.5387 304.04 42.5387C304.858 42.1707 305.962 41.7822 307.352 41.3733C308.742 40.9236 310.316 40.5351 312.075 40.208C313.833 39.84 315.693 39.656 317.656 39.656C320.845 39.656 323.38 40.208 325.261 41.312C327.142 42.3751 328.491 43.9084 329.309 45.912C330.127 47.9156 330.536 50.2871 330.536 53.0267C330.536 53.0267 330.536 76.3947 330.536 76.3947C330.536 76.3947 325.629 76.3947 325.629 76.3947C325.629 76.3947 324.587 72.5307 324.587 72.5307C324.587 72.5307 324.219 72.5307 324.219 72.5307C324.055 72.6533 323.605 72.96 322.869 73.4507C322.133 73.9413 321.213 74.4729 320.109 75.0453C319.005 75.6178 317.758 76.1084 316.368 76.5173C315.019 76.9671 313.587 77.192 312.075 77.192C312.075 77.192 312.075 77.192 312.075 77.192ZM314.099 70.752C315.366 70.752 316.613 70.5475 317.84 70.1386C319.107 69.7298 320.191 69.3209 321.091 68.912C322.031 68.4622 322.603 68.1555 322.808 67.992C322.808 67.992 322.808 60.08 322.808 60.08C322.603 60.0391 321.99 59.9778 320.968 59.896C319.946 59.7733 318.637 59.712 317.043 59.712C313.894 59.712 311.931 60.0595 311.155 60.7547C310.787 61.0409 310.48 61.5724 310.235 62.3493C309.989 63.1262 309.867 64.128 309.867 65.3547C309.867 67.2355 310.194 68.6053 310.848 69.464C311.502 70.3226 312.586 70.752 314.099 70.752ZM340.963 76.3946C340.963 76.3946 340.963 40.4533 340.963 40.4533C340.963 40.4533 345.747 40.4533 345.747 40.4533C345.747 40.4533 346.789 44.1947 346.789 44.1947C346.789 44.1947 347.157 44.1947 347.157 44.1947C347.157 44.1947 348.016 43.52 348.016 43.52C348.629 43.0702 349.427 42.5591 350.408 41.9867C351.43 41.3733 352.514 40.8418 353.659 40.392C354.844 39.9013 355.969 39.656 357.032 39.656C358.136 39.656 358.974 39.7582 359.547 39.9627C359.547 39.9627 360.405 40.208 360.405 40.208C360.405 40.208 359.792 47.0773 359.792 47.0773C359.792 47.0773 358.811 47.016 358.811 47.016C358.197 46.9342 357.543 46.8933 356.848 46.8933C355.785 46.8933 354.722 47.0364 353.659 47.3227C352.636 47.568 351.696 47.8951 350.837 48.304C349.979 48.7129 349.243 49.1013 348.629 49.4693C348.629 49.4693 348.629 76.3947 348.629 76.3947C348.629 76.3947 340.963 76.3946 340.963 76.3946ZM414.731 77.2533C411.624 77.2533 408.884 76.64 406.513 75.4133C404.141 74.1866 402.301 72.2035 400.993 69.464C399.684 66.6835 399.03 62.9831 399.03 58.3627C399.03 53.5787 399.725 49.8373 401.115 47.1387C402.506 44.3991 404.366 42.4569 406.697 41.312C409.027 40.1671 411.665 39.5947 414.609 39.5947C417.553 39.5947 420.047 40.1467 422.091 41.2507C424.177 42.3547 425.751 44.1538 426.814 46.648C427.918 49.1013 428.47 52.4338 428.47 56.6453C428.47 56.6453 428.47 61.2453 428.47 61.2453C428.47 61.2453 403.446 61.2453 403.446 61.2453C403.446 61.2453 406.942 60.0187 406.942 60.0187C406.86 62.0222 406.922 63.6782 407.126 64.9867C407.33 66.2951 407.617 67.3173 407.985 68.0533C408.353 68.7893 408.741 69.3413 409.15 69.7093C409.6 70.1182 410.172 70.4453 410.867 70.6907C411.603 70.8951 412.523 70.9973 413.627 70.9973C414.731 70.9973 415.917 70.8951 417.185 70.6907C418.452 70.4862 419.658 70.2409 420.803 69.9547C421.989 69.6275 423.011 69.3413 423.87 69.096C424.77 68.8098 425.403 68.6053 425.771 68.4827C425.771 68.4827 427.673 74.248 427.673 74.248C427.305 74.4115 426.487 74.7386 425.219 75.2293C423.952 75.72 422.418 76.1698 420.619 76.5786C418.82 77.0284 416.858 77.2533 414.731 77.2533C414.731 77.2533 414.731 77.2533 414.731 77.2533ZM406.942 57.1973C406.942 57.1973 403.446 55.5413 403.446 55.5413C403.446 55.5413 424.115 55.1733 424.115 55.1733C424.115 55.1733 420.681 56.8907 420.681 56.8907C420.681 54.5191 420.599 52.536 420.435 50.9413C420.272 49.3467 419.945 48.1609 419.454 47.384C419.168 47.016 418.698 46.6684 418.043 46.3413C417.43 46.0142 416.326 45.8507 414.731 45.8507C412.973 45.8507 411.644 46.0347 410.745 46.4027C409.845 46.7707 409.17 47.2409 408.721 47.8133C407.453 49.2853 406.86 52.4133 406.942 57.1973C406.942 57.1973 406.942 57.1973 406.942 57.1973ZM447.606 77.192C445.602 77.192 443.885 76.8853 442.454 76.272C441.023 75.6586 439.919 74.4524 439.142 72.6533C438.365 70.8542 437.977 68.2169 437.977 64.7413C437.977 64.7413 437.977 48.2427 437.977 48.2427C437.977 48.2427 433.867 48.2427 433.867 48.2427C433.867 48.2427 433.867 43.3973 433.867 43.3973C433.867 43.3973 438.345 42.5387 438.345 42.5387C438.345 42.5387 439.694 34.0747 439.694 34.0747C439.694 34.0747 445.766 34.0747 445.766 34.0747C445.766 34.0747 445.766 42.416 445.766 42.416C445.766 42.416 453.003 42.416 453.003 42.416C453.003 42.416 453.003 48.3653 453.003 48.3653C453.003 48.3653 445.705 48.3653 445.705 48.3653C445.705 48.3653 445.705 65.048 445.705 65.048C445.705 66.7653 445.766 68.0329 445.889 68.8506C446.052 69.6684 446.359 70.1795 446.809 70.384C447.258 70.5884 447.913 70.6906 448.771 70.6906C449.385 70.6906 449.998 70.6702 450.611 70.6293C451.265 70.5884 451.797 70.5475 452.206 70.5066C452.206 70.5066 452.881 70.4453 452.881 70.4453C452.881 70.4453 452.881 76.7013 452.881 76.7013C452.881 76.7013 451.347 76.9466 451.347 76.9466C450.366 77.1102 449.119 77.192 447.606 77.192C447.606 77.192 447.606 77.192 447.606 77.192ZM476.433 77.192C474.102 77.192 471.874 76.8649 469.747 76.2106C467.662 75.5564 465.822 74.432 464.227 72.8373C462.633 71.2018 461.386 68.9324 460.486 66.0293C459.586 63.0853 459.137 59.3644 459.137 54.8667C459.137 50.328 459.586 46.6276 460.486 43.7653C461.385 40.8622 462.633 38.6133 464.227 37.0187C465.822 35.3831 467.662 34.2587 469.747 33.6453C471.874 32.9911 474.102 32.664 476.433 32.664C478.804 32.664 481.033 32.9911 483.118 33.6453C485.203 34.2587 487.043 35.3831 488.638 37.0187C490.233 38.6133 491.48 40.8622 492.379 43.7653C493.279 46.6276 493.729 50.328 493.729 54.8667C493.729 59.3644 493.279 63.0853 492.379 66.0293C491.48 68.9324 490.233 71.2018 488.638 72.8373C487.043 74.432 485.203 75.5564 483.118 76.2106C481.033 76.8649 478.804 77.192 476.433 77.192ZM476.433 70.3226C478.027 70.3226 479.397 70.1386 480.542 69.7706C481.687 69.4026 482.627 68.7075 483.363 67.6853C484.14 66.6222 484.692 65.0684 485.019 63.024C485.387 60.9795 485.571 58.3013 485.571 54.9893C485.571 51.6364 485.387 48.9378 485.019 46.8933C484.692 44.8489 484.161 43.3155 483.425 42.2933C482.689 41.2302 481.728 40.5147 480.542 40.1467C479.397 39.7378 478.027 39.5333 476.433 39.5333C474.797 39.5333 473.407 39.7378 472.262 40.1467C471.117 40.5147 470.177 41.2302 469.441 42.2933C468.705 43.3155 468.153 44.8489 467.785 46.8933C467.457 48.9378 467.294 51.6364 467.294 54.9893C467.294 58.3422 467.457 61.0409 467.785 63.0853C468.153 65.0889 468.705 66.6222 469.441 67.6853C470.217 68.7075 471.178 69.4026 472.323 69.7706C473.468 70.1386 474.838 70.3226 476.433 70.3226C476.433 70.3226 476.433 70.3226 476.433 70.3226ZM513.601 77.192C511.761 77.192 509.982 76.9875 508.265 76.5786C506.588 76.2106 505.075 75.7813 503.726 75.2906C502.417 74.8 501.375 74.3706 500.598 74.0026C500.598 74.0026 499.433 73.3893 499.433 73.3893C499.433 73.3893 499.739 72.4693 499.739 72.4693C499.985 71.8151 500.25 71.0791 500.537 70.2613C500.823 69.4435 501.068 68.7484 501.273 68.176C501.273 68.176 501.641 67.256 501.641 67.256C501.641 67.256 502.745 67.7466 502.745 67.7466C503.521 68.0738 504.544 68.4418 505.811 68.8506C507.12 69.2595 508.551 69.6275 510.105 69.9546C511.658 70.2409 513.233 70.384 514.827 70.384C515.686 70.384 516.361 70.3226 516.851 70.2C517.383 70.0364 517.771 69.8729 518.017 69.7093C518.63 69.3004 519.1 68.7075 519.427 67.9306C519.795 67.1538 519.979 66.0906 519.979 64.7413C519.979 63.5146 519.591 62.4924 518.814 61.6746C518.078 60.816 517.096 60.0595 515.87 59.4053C514.643 58.7511 513.335 58.1173 511.945 57.504C510.513 56.8498 509.103 56.1751 507.713 55.48C506.363 54.7849 505.137 53.9875 504.033 53.088C502.969 52.1475 502.111 50.9822 501.457 49.592C500.843 48.2018 500.537 46.4844 500.537 44.44C500.537 42.232 501.048 40.2489 502.07 38.4907C503.133 36.6915 504.728 35.2809 506.854 34.2587C508.98 33.1955 511.597 32.664 514.705 32.664C516.136 32.664 517.526 32.7662 518.875 32.9707C520.224 33.1342 521.472 33.3387 522.617 33.584C523.761 33.7884 524.661 33.9724 525.315 34.136C525.315 34.136 526.297 34.3813 526.297 34.3813C526.297 34.3813 525.07 40.6987 525.07 40.6987C525.07 40.6987 523.966 40.5147 523.966 40.5147C523.271 40.392 522.351 40.2489 521.206 40.0853C520.061 39.9218 518.814 39.7787 517.464 39.656C516.115 39.5333 514.807 39.472 513.539 39.472C512.68 39.472 511.985 39.5333 511.454 39.656C510.963 39.7787 510.534 39.9422 510.166 40.1467C509.757 40.392 509.368 40.8213 509 41.4347C508.673 42.048 508.51 42.968 508.51 44.1947C508.51 45.3395 508.857 46.3209 509.552 47.1387C510.248 47.9564 511.168 48.672 512.312 49.2853C513.457 49.8578 514.684 50.4302 515.992 51.0027C517.342 51.5751 518.712 52.2089 520.102 52.904C521.492 53.5582 522.76 54.376 523.904 55.3573C525.09 56.2978 526.051 57.4835 526.787 58.9146C527.523 60.3458 527.891 62.1244 527.891 64.2506C527.891 66.8675 527.298 69.1573 526.112 71.12C524.927 73.0418 523.25 74.5342 521.083 75.5973C518.916 76.6604 516.422 77.192 513.6 77.192C513.6 77.192 513.601 77.192 513.601 77.192Z"/>
             </g>
            </g>
           </g>
          </g>
         </g>
        </g>
        <g transform="translate(374.657 53.1493)">
         <g transform="translate(8 0)">
          <g transform="rotate(0)">
           <g transform="scale(1 1)">
            <g transform="skewX(0) skewY(0)">
             <g opacity="1" transform="translate(-374.657 -53.1493)">
              <g>
               <g transform="translate(361.881 53.1493)">
                <g transform="translate(0 0)">
                 <g transform="rotate(0)">
                  <g transform="scale(1 1)">
                   <g transform="skewX(0) skewY(0)">
                    <g opacity="1" transform="translate(-361.881 -53.1493)">
                     <path stroke-width="0" stroke="none" fill="rgba(255, 255, 255, 1)" d="M358.048 76.3946C358.048 76.3946 358.293 56.7067 358.293 56.7067C358.293 56.7067 358.048 29.904 358.048 29.904C358.048 29.904 365.715 29.904 365.715 29.904C365.715 29.904 365.715 76.3946 365.715 76.3946C365.715 76.3946 358.048 76.3946 358.048 76.3946Z"/>
                    </g>
                   </g>
                  </g>
                 </g>
                </g>
               </g>
               <g transform="translate(380.429 66.1269)">
                <g transform="translate(0 0)">
                 <g transform="rotate(0)">
                  <g transform="scale(1 1)">
                   <g transform="skewX(0) skewY(0)">
                    <g opacity="1" transform="translate(-380.429 -66.1269)">
                     <path stroke-width="0" stroke="none" fill="rgba(255, 255, 255, 1)" d="M381.5 76.3946C381.5 76.3946 369.592 61.6349 369.592 61.6349C369.592 61.6349 374.43 55.8592 374.43 55.8592C377.091 59.8881 379.942 63.5074 391.267 76.3946C391.267 76.3946 381.5 76.3946 381.5 76.3946Z"/>
                    </g>
                   </g>
                  </g>
                 </g>
                </g>
               </g>
               <g transform="translate(376.69 53.4763)">
                <g transform="translate(0 0)">
                 <g transform="rotate(0)">
                  <g transform="scale(1 1)">
                   <g transform="skewX(0) skewY(0)">
                    <g opacity="1" transform="translate(-376.69 -53.4763)">
                     <path stroke-width="0" stroke="none" fill="rgba(255, 255, 255, 1)" d="M365.592 57.1973C365.592 57.1973 378.472 40.4533 378.472 40.4533C378.472 40.4533 387.917 40.4533 387.917 40.4533C387.917 40.4533 365.463 66.4993 365.463 66.4993C365.463 66.4993 365.592 57.1973 365.592 57.1973Z"/>
                    </g>
                   </g>
                  </g>
                 </g>
                </g>
               </g>
              </g>
             </g>
            </g>
           </g>
          </g>
         </g>
        </g>
       </g>
      </g>
     </g>
    </g>
   </g>
  </g>
 </g>
 <defs/>
</svg>
