<?xml version="1.0" encoding="UTF-8" standalone="no"?>
<!-- Created with Inkscape (http://www.inkscape.org/) -->

<svg
   width="2000"
   height="2000"
   viewBox="0 0 529.16665 529.16666"
   version="1.1"
   id="svg5"
   inkscape:version="1.3.2 (091e20ef0f, 2023-11-25)"
   sodipodi:docname="dunes.svg"
   inkscape:export-filename="dunes.png"
   inkscape:export-xdpi="96"
   inkscape:export-ydpi="96"
   xmlns:inkscape="http://www.inkscape.org/namespaces/inkscape"
   xmlns:sodipodi="http://sodipodi.sourceforge.net/DTD/sodipodi-0.dtd"
   xmlns:xlink="http://www.w3.org/1999/xlink"
   xmlns="http://www.w3.org/2000/svg"
   xmlns:svg="http://www.w3.org/2000/svg">
  <sodipodi:namedview
     id="namedview7"
     pagecolor="#ffffff"
     bordercolor="#cccccc"
     borderopacity="1"
     inkscape:showpageshadow="0"
     inkscape:pageopacity="1"
     inkscape:pagecheckerboard="0"
     inkscape:deskcolor="#d1d1d1"
     inkscape:document-units="px"
     showgrid="false"
     inkscape:zoom="0.14866305"
     inkscape:cx="951.81688"
     inkscape:cy="978.72336"
     inkscape:window-width="1366"
     inkscape:window-height="699"
     inkscape:window-x="0"
     inkscape:window-y="0"
     inkscape:window-maximized="1"
     inkscape:current-layer="layer1" />
  <defs
     id="defs2">
    <linearGradient
       inkscape:collect="always"
       id="linearGradient1077">
      <stop
         style="stop-color:#1a5fb4;stop-opacity:1"
         offset="0"
         id="stop1071" />
      <stop
         style="stop-color:#1c71d8;stop-opacity:1"
         offset="0.5"
         id="stop1073" />
      <stop
         style="stop-color:#62a0ea;stop-opacity:1"
         offset="0.75"
         id="stop1075" />
    </linearGradient>
    <linearGradient
       inkscape:collect="always"
       id="linearGradient877">
      <stop
         style="stop-color:#3584e4;stop-opacity:1"
         offset="0"
         id="stop873" />
      <stop
         style="stop-color:#62a0ea;stop-opacity:1"
         offset="0.5"
         id="stop881" />
      <stop
         style="stop-color:#99c1f1;stop-opacity:1"
         offset="0.75"
         id="stop883" />
    </linearGradient>
    <radialGradient
       inkscape:collect="always"
       xlink:href="#linearGradient877"
       id="radialGradient887"
       cx="7.5870385"
       cy="649.68658"
       fx="7.5870385"
       fy="649.68658"
       r="113.45444"
       gradientUnits="userSpaceOnUse"
       gradientTransform="matrix(1.4327657,1.0181256,-0.71060145,0.99999983,427.92158,-6.9419015)" />
    <radialGradient
       inkscape:collect="always"
       xlink:href="#linearGradient1077"
       id="radialGradient1069"
       gradientUnits="userSpaceOnUse"
       gradientTransform="matrix(3.341305,2.3743367,-1.6571699,2.3320662,1246.624,-1165.6513)"
       cx="7.5870385"
       cy="649.68658"
       fx="7.5870385"
       fy="649.68658"
       r="113.45444" />
    <radialGradient
       inkscape:collect="always"
       xlink:href="#linearGradient1077"
       id="radialGradient1970"
       gradientUnits="userSpaceOnUse"
       gradientTransform="matrix(3.341305,2.3743367,-1.6571699,2.3320662,1246.6239,-1165.6513)"
       cx="7.5870385"
       cy="649.68658"
       fx="7.5870385"
       fy="649.68658"
       r="113.45444" />
    <clipPath
       clipPathUnits="userSpaceOnUse"
       id="clipPath2616">
      <path
         id="path2618"
         style="fill:#2ec27e;stroke-width:1.053"
         inkscape:transform-center-x="-6.7454971e-06"
         inkscape:transform-center-y="5.7464221"
         d="m 112.33159,699.76518 h 39.81232 l -19.90616,34.47847 z m -39.81232,0 h 39.81232 l -19.90616,34.47847 z m 59.71844,34.47849 H 92.42539 l 19.90616,-34.47846 z M 92.42543,665.2867 h 39.81232 l -19.90616,34.47846 z m 19.90614,34.47848 H 72.519249 l 19.90616,-34.47846 z m 4e-5,-68.95695 h 39.81232 l -19.90616,34.47849 z m -39.8123,0 h 39.81232 l -19.90616,34.47849 z m -39.81232,0 h 39.81232 l -19.90616,34.47849 z m 59.718461,-34.47846 h 39.812319 l -19.90616,34.47846 z m -39.812298,0 H 92.42547 l -19.906158,34.47846 z m 99.530767,34.47849 H 112.3316 l 19.90616,-34.47849 z m -39.81231,0 H 72.519291 l 19.90616,-34.47849 z m -39.812311,0 h -39.81232 l 19.90616,-34.47849 z m -39.81237,68.95692 h 39.81232 l -19.90616,34.47847 z m -39.812321,0 h 39.812321 l -19.906161,34.47847 z m -79.624578,0 h 39.81232 l -19.90616,34.47847 z m -39.8123,0 h 39.812319 l -19.906159,34.47847 z M 92.425419,734.24367 H 52.6131 l 19.90616,-34.47846 z m -39.812309,0 H 12.80079 l 19.90616,-34.47846 z m -39.81231,0 H -27.011519 L -7.10536,699.76521 Z m -39.812311,0 h -39.81232 l 19.90616,-34.47846 z m -39.812328,0 h -39.812321 l 19.906159,-34.47846 z m -39.812311,0 h -39.81232 l 19.90616,-34.47846 z m 39.812319,-68.95697 h 39.81232 l -19.90616,34.47846 z m -39.812299,0 h 39.81232 l -19.90616,34.47846 z m -39.8123,0 h 39.81232 l -19.90616,34.47846 z M 32.706961,699.76518 H -7.10536 L 12.8008,665.28672 Z m -39.812311,0 h -39.812321 l 19.90616,-34.47846 z m -79.62463,0 h -39.81232 l 19.90616,-34.47846 z m 39.812312,-68.95695 h 39.8123199 l -19.9061599,34.47849 z m 99.530807,34.47849 H 12.80082 l 19.906159,-34.47846 z m -119.43693,0 h -39.812319 l 19.906159,-34.47846 z m -39.812319,0 h -39.81232 l 19.90616,-34.47846 z m 0,-68.95695 h 39.812319 l -19.90616,34.47846 z m -39.8123,0 h 39.81232 l -19.90616,34.47846 z m 179.1554,34.47849 H -7.1053301 L 12.80083,596.32977 Z m -39.8123101,0 H -46.917639 l 19.90616,-34.47849 z m -39.8123109,0 h -39.81232 l 19.90616,-34.47849 z M 112.3316,561.85131 h 39.81232 l -19.90616,34.47846 z m -39.812285,0 h 39.812325 l -19.90616,34.47846 z m -39.812296,0 h 39.81232 l -19.90616,34.47846 z m -39.812319,0 H 32.707019 L 12.80086,596.32977 Z m 139.34308,34.47846 H 92.425459 l 19.906161,-34.47849 z m -39.812329,0 H 52.613129 l 19.906162,-34.47849 z m -39.812312,0 H 12.80082 l 19.906159,-34.47849 z m 39.81232,-68.95695 h 39.812321 l -19.90616,34.47846 z m -39.812304,0 H 92.42548 l -19.906165,34.47846 z m -39.812295,0 h 39.812319 l -19.90616,34.47846 z m -39.812321,0 H 12.80086 L -7.1053,561.85128 Z m 179.155401,34.47846 h -39.81232 l 19.90616,-34.47846 z m -39.81232,0 H 72.519299 l 19.90616,-34.47846 z m -39.81231,0 H 32.70699 l 19.90616,-34.47846 z m -39.812309,0 H -7.1053201 L 12.80084,527.37282 Z m 79.624619,-68.95687 h 39.81232 l -19.90616,34.47841 z m -39.812297,0 h 39.812317 l -19.90616,34.47841 z m -39.812283,0 H 72.51936 L 52.6132,527.37282 Z m -39.8123,0 H 32.707059 L 12.8009,527.37282 Z m 139.34307,34.47841 H 92.425491 L 112.33165,492.8943 Z m -39.812311,0 h -39.81232 l 19.90616,-34.47852 z m -39.81232,0 H 12.80086 L 32.707019,492.8943 Z m -39.812309,0 H -27.01145 L -7.1052899,492.8943 Z m 79.62461,-68.95693 h 39.81232 l -19.90616,34.47841 z m -39.812298,0 H 92.425499 L 72.519342,492.8943 Z m -39.812302,0 H 52.6132 L 32.70704,492.8943 Z m -39.812301,0 H 12.8009 L -7.10526,492.8943 Z m -39.81232,0 h 39.81232 l -19.90616,34.47841 z M 152.14397,492.8943 h -39.81232 l 19.90616,-34.47841 z m -39.81231,0 H 72.519339 l 19.90616,-34.47841 z m -39.81231,0 H 32.70703 l 19.90616,-34.47841 z m -39.81231,0 H -7.1052801 L 12.80088,458.41589 Z m -39.8123101,0 H -46.917589 l 19.90616,-34.47841 z M -86.72997,561.85131 h 39.81232 l -19.90616,34.47846 z m -39.8123,0 h 39.812319 l -19.906159,34.47846 z M 12.80085,596.32977 H -27.011471 L -7.10531,561.85128 Z m -39.812311,0 H -66.82378 l 19.906159,-34.47849 z m -79.624619,0 h -39.81232 l 19.90616,-34.47849 z m 39.812297,-68.95695 h 39.81232 l -19.90616,34.47846 z m -79.624627,0 h 39.81232 l -19.90616,34.47846 z M -7.1053,561.85128 h -39.812321 l 19.90616,-34.47846 z m -39.81231,0 h -39.81232 l 19.90616,-34.47846 z m -39.812309,0 h -39.812321 l 19.90616,-34.47846 z m 8e-6,-68.95687 h 39.812322 l -19.90616,34.47841 z m 59.718482,34.47841 h -39.81232 l 19.90616,-34.47852 z m -39.812312,0 h -39.812319 l 19.906159,-34.47852 z m -39.812309,0 h -39.81232 l 19.90616,-34.47852 z m 0,-68.95693 h 39.81232 l -19.90616,34.47841 z m -39.81232,0 h 39.81232 l -19.90616,34.47841 z m 99.530789,34.47841 h -39.81232 l 19.90616,-34.47841 z m -39.812309,0 h -39.81232 l 19.90616,-34.47841 z" />
    </clipPath>
    <radialGradient
       inkscape:collect="always"
       xlink:href="#linearGradient877"
       id="radialGradient2634"
       gradientUnits="userSpaceOnUse"
       gradientTransform="matrix(1.4327657,1.0181256,-0.71060145,0.99999983,427.92158,-6.9419015)"
       cx="7.5870385"
       cy="649.68658"
       fx="7.5870385"
       fy="649.68658"
       r="113.45444" />
    <radialGradient
       inkscape:collect="always"
       xlink:href="#linearGradient877"
       id="radialGradient2638"
       gradientUnits="userSpaceOnUse"
       gradientTransform="matrix(1.4327657,1.0181256,-0.71060145,0.99999983,427.92158,-6.9419015)"
       cx="7.5870385"
       cy="649.68658"
       fx="7.5870385"
       fy="649.68658"
       r="113.45444" />
    <radialGradient
       inkscape:collect="always"
       xlink:href="#linearGradient877"
       id="radialGradient2642"
       gradientUnits="userSpaceOnUse"
       gradientTransform="matrix(1.4327657,1.0181256,-0.71060145,0.99999983,427.92158,-6.9419015)"
       cx="7.5870385"
       cy="649.68658"
       fx="7.5870385"
       fy="649.68658"
       r="113.45444" />
    <radialGradient
       inkscape:collect="always"
       xlink:href="#linearGradient877"
       id="radialGradient2646"
       gradientUnits="userSpaceOnUse"
       gradientTransform="matrix(1.4327657,1.0181256,-0.71060145,0.99999983,427.92158,-6.9419015)"
       cx="7.5870385"
       cy="649.68658"
       fx="7.5870385"
       fy="649.68658"
       r="113.45444" />
  </defs>
  <g
     inkscape:label="Layer 1"
     inkscape:groupmode="layer"
     id="layer1">
    <rect
       style="fill:url(#radialGradient1970);fill-opacity:1;stroke-width:2.45567"
       id="rect1968"
       width="529.16663"
       height="529.16663"
       x="1.5588073e-05"
       y="4.6636633e-05"
       inkscape:export-filename="rect1968.png"
       inkscape:export-xdpi="96"
       inkscape:export-ydpi="96" />
    <rect
       style="fill:url(#radialGradient1069);fill-opacity:1;stroke-width:2.45567"
       id="rect1067"
       width="529.16663"
       height="529.16663"
       x="1.5588073e-05"
       y="4.6636633e-05" />
    <rect
       style="opacity:0.223387;fill:url(#radialGradient887);fill-opacity:1;stroke-width:1.053"
       id="rect234"
       width="226.90887"
       height="226.90887"
       x="-106.63605"
       y="492.89435"
       clip-path="url(#clipPath2616)"
       transform="matrix(2.3320666,0,0,2.3320666,248.68238,-1149.4624)" />
    <rect
       style="opacity:0.223387;fill:url(#radialGradient2634);fill-opacity:1;stroke-width:1.053"
       id="rect2632"
       width="226.90887"
       height="226.90887"
       x="-106.63605"
       y="492.89435"
       clip-path="url(#clipPath2616)"
       transform="matrix(3.1852075,0,0,3.1852075,339.65795,-1763.5559)" />
    <rect
       style="opacity:0.223387;fill:url(#radialGradient2638);fill-opacity:1;stroke-width:1.053"
       id="rect2636"
       width="226.90887"
       height="226.90887"
       x="-106.63605"
       y="492.89435"
       clip-path="url(#clipPath2616)"
       transform="matrix(2.7012199,0,0,2.7012199,288.04742,-1415.1801)" />
    <rect
       style="opacity:0.223387;fill:url(#radialGradient2642);fill-opacity:1;stroke-width:1.053"
       id="rect2640"
       width="226.90887"
       height="226.90887"
       x="-106.63605"
       y="492.89435"
       clip-path="url(#clipPath2616)"
       transform="matrix(2.405929,0,0,2.405929,256.55877,-1202.6288)" />
    <rect
       style="opacity:0.223387;fill:url(#radialGradient2646);fill-opacity:1;stroke-width:1.053"
       id="rect2644"
       width="226.90887"
       height="226.90887"
       x="-106.63605"
       y="492.89435"
       clip-path="url(#clipPath2616)"
       transform="matrix(2.9262741,0,0,2.9262741,312.04633,-1577.175)" />
  </g>
</svg>
