<?xml version="1.0" encoding="UTF-8" standalone="no"?>
<!-- Created with Inkscape (http://www.inkscape.org/) -->

<svg
   width="2000"
   height="2000"
   viewBox="0 0 529.16665 529.16666"
   version="1.1"
   id="svg1"
   inkscape:version="1.3.2 (091e20ef0f, 2023-11-25)"
   sodipodi:docname="verdigris.svg"
   xmlns:inkscape="http://www.inkscape.org/namespaces/inkscape"
   xmlns:sodipodi="http://sodipodi.sourceforge.net/DTD/sodipodi-0.dtd"
   xmlns:xlink="http://www.w3.org/1999/xlink"
   xmlns="http://www.w3.org/2000/svg"
   xmlns:svg="http://www.w3.org/2000/svg">
  <sodipodi:namedview
     id="namedview1"
     pagecolor="#ffffff"
     bordercolor="#000000"
     borderopacity="0.25"
     inkscape:showpageshadow="2"
     inkscape:pageopacity="0.0"
     inkscape:pagecheckerboard="0"
     inkscape:deskcolor="#d1d1d1"
     inkscape:document-units="px"
     inkscape:zoom="0.077323684"
     inkscape:cx="1157.472"
     inkscape:cy="653.09873"
     inkscape:window-width="1366"
     inkscape:window-height="699"
     inkscape:window-x="0"
     inkscape:window-y="0"
     inkscape:window-maximized="1"
     inkscape:current-layer="layer1" />
  <defs
     id="defs1">
    <clipPath
       clipPathUnits="userSpaceOnUse"
       id="clipPath11076">
      <rect
         style="opacity:0.140625;fill:#c061cb;fill-opacity:1;stroke-width:3.25551"
         id="rect11077"
         width="959.73096"
         height="615.99292"
         x="4525.4204"
         y="1727.2848"
         transform="matrix(0.9909081,0.13454046,-0.3202815,0.94732242,0,0)" />
    </clipPath>
    <radialGradient
       inkscape:collect="always"
       xlink:href="#linearGradient1"
       id="radialGradient11032"
       gradientUnits="userSpaceOnUse"
       gradientTransform="matrix(1.6132349,0.00402004,-0.004202,1.6862531,2104.5184,481.33733)"
       cx="-250.91455"
       cy="1149.5624"
       fx="-250.91455"
       fy="1149.5624"
       r="264.58334" />
    <linearGradient
       id="linearGradient1"
       inkscape:collect="always">
      <stop
         style="stop-color:#0d6cd9;stop-opacity:1;"
         offset="0"
         id="stop2" />
      <stop
         style="stop-color:#1782f4;stop-opacity:1;"
         offset="0.0001"
         id="stop7" />
      <stop
         style="stop-color:#117bf1;stop-opacity:1;"
         offset="0.1055342"
         id="stop6" />
      <stop
         style="stop-color:#1a8efe;stop-opacity:1;"
         offset="0.39018154"
         id="stop5" />
      <stop
         style="stop-color:#38a8ff;stop-opacity:1;"
         offset="0.56076366"
         id="stop4" />
      <stop
         style="stop-color:#41aeff;stop-opacity:1;"
         offset="0.79157054"
         id="stop3" />
      <stop
         style="stop-color:#70cbff;stop-opacity:1;"
         offset="1"
         id="stop1" />
    </linearGradient>
    <clipPath
       clipPathUnits="userSpaceOnUse"
       id="clipPath11010">
      <path
         style="opacity:0.5;fill:#0ca1ee;fill-opacity:1;stroke-width:2.87999"
         id="path11010"
         inkscape:path-effect="#path-effect11007"
         sodipodi:type="arc"
         sodipodi:cx="2705.5864"
         sodipodi:cy="2213.7454"
         sodipodi:rx="288.79599"
         sodipodi:ry="132.9782"
         d="m 2971.7178,2219.2554 c 2.8532,24.7638 -3.3598,48.4153 -16.0328,72.7734 -5.3184,10.1917 -11.8889,20.3426 -19.5859,29.0963 0,0 0,0 0,0 -11.4732,12.8847 -25.7668,23.4099 -45.2469,30.7059 -14.7105,5.5806 -31.673,9.386 -50.8016,11.4295 -7.1879,0.774 -14.7244,1.3564 -22.5356,1.7248 -5.7371,0.2823 -11.9684,0.502 -18.6218,0.6124 -29.2469,-0.8923 -61.7612,-5.1267 -91.4487,-8.5873 -3.0359,-0.3545 -6.045,-0.7028 -9.0791,-1.0493 -29.5157,-3.3702 -46.855,-4.9063 -75.9645,-7.5127 -26.9963,-2.413 -53.3852,-4.8187 -76.5702,-9.0615 -6.5301,1.051 -12.8264,1.6153 -18.8802,1.6637 -17.9047,0.149 -33.0365,-4.2452 -45.0572,-12.7005 -11.9858,-8.4309 -20.1849,-20.4128 -25.0722,-34.2772 -4.8874,-13.8645 -6.3082,-29.0749 -5.6755,-44.3168 0.627,-15.1061 3.2793,-30.4392 6.4902,-44.8316 4.3449,-19.4749 11.4327,-44.5826 17.8239,-62.0134 0,0 0,0 0,0 -4.4775,-15.452 -4.0119,-30.8198 4.7885,-43.9286 8.8056,-13.1164 25.0512,-22.4094 48.2833,-25.9062 6.2312,-0.9363 12.8542,-1.4402 19.8669,-1.5472 24.772,0.2392 51.3124,4.9314 80.8671,9.8326 27.4634,4.5553 52.6402,8.1688 79.1489,8.3206 3.053,0.017 6.0865,-0.012 9.1086,-0.088 32.0005,-0.8033 57.8334,-6.6644 85.8775,-11.8535 5.5048,-1.0784 10.8574,-3.0107 15.491,-4.6715 6.5094,-2.2898 12.4423,-4.3471 18.3906,-5.8526 15.7811,-3.9758 29.5656,-3.6833 42.7329,1.7347 17.3038,7.1348 30.6812,21.4284 42.3187,38.4558 0,0 0,0 0,0 7.6407,11.2109 14.9243,23.9692 21.0218,35.449 2.4811,4.6681 4.9135,9.3757 7.1902,13.9482 0,0 0,0 0,0 10.5531,21.7512 18.8157,41.9981 21.1721,62.451 z"
         transform="translate(-787.31618,131.6482)" />
    </clipPath>
    <inkscape:path-effect
       effect="envelope"
       id="path-effect11007"
       is_visible="true"
       lpeversion="1"
       yy="true"
       xx="true"
       bendpath1="m 2416.7904,2035.2596 c 182.0892,41.4361 260.4047,72.9707 389.965,43.4202 35.1679,-8.0212 114.0967,-83.6558 187.627,-43.4202"
       bendpath2="m 2954.2815,2051.6152 40.1009,340.6159"
       bendpath3="m 2416.7904,2392.2311 130.9611,-53.6143 446.6309,53.6143"
       bendpath4="m 2416.7904,2035.2596 56.618,106.0438 -56.618,250.9277"
       bendpath1-nodetypes="csc"
       bendpath2-nodetypes="cc"
       bendpath3-nodetypes="ccc"
       bendpath4-nodetypes="ccc" />
    <radialGradient
       inkscape:collect="always"
       xlink:href="#linearGradient1"
       id="radialGradient11031"
       gradientUnits="userSpaceOnUse"
       gradientTransform="matrix(1.6132349,0.00402004,-0.004202,1.6862531,2104.5184,481.33733)"
       cx="-250.91455"
       cy="1149.5624"
       fx="-250.91455"
       fy="1149.5624"
       r="264.58334" />
    <clipPath
       clipPathUnits="userSpaceOnUse"
       id="clipPath14">
      <path
         style="opacity:0.5;fill:#0ca1ee;fill-opacity:1;stroke-width:2.87999"
         id="path14"
         inkscape:path-effect="#path-effect11007"
         sodipodi:type="arc"
         sodipodi:cx="2705.5864"
         sodipodi:cy="2213.7454"
         sodipodi:rx="288.79599"
         sodipodi:ry="132.9782"
         d="m 2971.7178,2219.2554 c 2.8532,24.7638 -3.3598,48.4153 -16.0328,72.7734 -5.3184,10.1917 -11.8889,20.3426 -19.5859,29.0963 0,0 0,0 0,0 -11.4732,12.8847 -25.7668,23.4099 -45.2469,30.7059 -14.7105,5.5806 -31.673,9.386 -50.8016,11.4295 -7.1879,0.774 -14.7244,1.3564 -22.5356,1.7248 -5.7371,0.2823 -11.9684,0.502 -18.6218,0.6124 -29.2469,-0.8923 -61.7612,-5.1267 -91.4487,-8.5873 -3.0359,-0.3545 -6.045,-0.7028 -9.0791,-1.0493 -29.5157,-3.3702 -46.855,-4.9063 -75.9645,-7.5127 -26.9963,-2.413 -53.3852,-4.8187 -76.5702,-9.0615 -6.5301,1.051 -12.8264,1.6153 -18.8802,1.6637 -17.9047,0.149 -33.0365,-4.2452 -45.0572,-12.7005 -11.9858,-8.4309 -20.1849,-20.4128 -25.0722,-34.2772 -4.8874,-13.8645 -6.3082,-29.0749 -5.6755,-44.3168 0.627,-15.1061 3.2793,-30.4392 6.4902,-44.8316 4.3449,-19.4749 11.4327,-44.5826 17.8239,-62.0134 0,0 0,0 0,0 -4.4775,-15.452 -4.0119,-30.8198 4.7885,-43.9286 8.8056,-13.1164 25.0512,-22.4094 48.2833,-25.9062 6.2312,-0.9363 12.8542,-1.4402 19.8669,-1.5472 24.772,0.2392 51.3124,4.9314 80.8671,9.8326 27.4634,4.5553 52.6402,8.1688 79.1489,8.3206 3.053,0.017 6.0865,-0.012 9.1086,-0.088 32.0005,-0.8033 57.8334,-6.6644 85.8775,-11.8535 5.5048,-1.0784 10.8574,-3.0107 15.491,-4.6715 6.5094,-2.2898 12.4423,-4.3471 18.3906,-5.8526 15.7811,-3.9758 29.5656,-3.6833 42.7329,1.7347 17.3038,7.1348 30.6812,21.4284 42.3187,38.4558 0,0 0,0 0,0 7.6407,11.2109 14.9243,23.9692 21.0218,35.449 2.4811,4.6681 4.9135,9.3757 7.1902,13.9482 0,0 0,0 0,0 10.5531,21.7512 18.8157,41.9981 21.1721,62.451 z"
         transform="translate(-787.31618,131.6482)" />
    </clipPath>
    <inkscape:path-effect
       effect="envelope"
       id="path-effect14"
       is_visible="true"
       lpeversion="1"
       yy="true"
       xx="true"
       bendpath1="m 2416.7904,2035.2596 c 182.0892,41.4361 260.4047,72.9707 389.965,43.4202 35.1679,-8.0212 114.0967,-83.6558 187.627,-43.4202"
       bendpath2="m 2954.2815,2051.6152 40.1009,340.6159"
       bendpath3="m 2416.7904,2392.2311 130.9611,-53.6143 446.6309,53.6143"
       bendpath4="m 2416.7904,2035.2596 56.618,106.0438 -56.618,250.9277"
       bendpath1-nodetypes="csc"
       bendpath2-nodetypes="cc"
       bendpath3-nodetypes="ccc"
       bendpath4-nodetypes="ccc" />
    <radialGradient
       inkscape:collect="always"
       xlink:href="#linearGradient1"
       id="radialGradient11030"
       gradientUnits="userSpaceOnUse"
       gradientTransform="matrix(1.6132349,0.00402004,-0.004202,1.6862531,2104.5184,481.33733)"
       cx="-250.91455"
       cy="1149.5624"
       fx="-250.91455"
       fy="1149.5624"
       r="264.58334" />
    <clipPath
       clipPathUnits="userSpaceOnUse"
       id="clipPath21">
      <path
         style="opacity:0.5;fill:#0ca1ee;fill-opacity:1;stroke-width:2.87999"
         id="path21"
         inkscape:path-effect="#path-effect11007"
         sodipodi:type="arc"
         sodipodi:cx="2705.5864"
         sodipodi:cy="2213.7454"
         sodipodi:rx="288.79599"
         sodipodi:ry="132.9782"
         d="m 2971.7178,2219.2554 c 2.8532,24.7638 -3.3598,48.4153 -16.0328,72.7734 -5.3184,10.1917 -11.8889,20.3426 -19.5859,29.0963 0,0 0,0 0,0 -11.4732,12.8847 -25.7668,23.4099 -45.2469,30.7059 -14.7105,5.5806 -31.673,9.386 -50.8016,11.4295 -7.1879,0.774 -14.7244,1.3564 -22.5356,1.7248 -5.7371,0.2823 -11.9684,0.502 -18.6218,0.6124 -29.2469,-0.8923 -61.7612,-5.1267 -91.4487,-8.5873 -3.0359,-0.3545 -6.045,-0.7028 -9.0791,-1.0493 -29.5157,-3.3702 -46.855,-4.9063 -75.9645,-7.5127 -26.9963,-2.413 -53.3852,-4.8187 -76.5702,-9.0615 -6.5301,1.051 -12.8264,1.6153 -18.8802,1.6637 -17.9047,0.149 -33.0365,-4.2452 -45.0572,-12.7005 -11.9858,-8.4309 -20.1849,-20.4128 -25.0722,-34.2772 -4.8874,-13.8645 -6.3082,-29.0749 -5.6755,-44.3168 0.627,-15.1061 3.2793,-30.4392 6.4902,-44.8316 4.3449,-19.4749 11.4327,-44.5826 17.8239,-62.0134 0,0 0,0 0,0 -4.4775,-15.452 -4.0119,-30.8198 4.7885,-43.9286 8.8056,-13.1164 25.0512,-22.4094 48.2833,-25.9062 6.2312,-0.9363 12.8542,-1.4402 19.8669,-1.5472 24.772,0.2392 51.3124,4.9314 80.8671,9.8326 27.4634,4.5553 52.6402,8.1688 79.1489,8.3206 3.053,0.017 6.0865,-0.012 9.1086,-0.088 32.0005,-0.8033 57.8334,-6.6644 85.8775,-11.8535 5.5048,-1.0784 10.8574,-3.0107 15.491,-4.6715 6.5094,-2.2898 12.4423,-4.3471 18.3906,-5.8526 15.7811,-3.9758 29.5656,-3.6833 42.7329,1.7347 17.3038,7.1348 30.6812,21.4284 42.3187,38.4558 0,0 0,0 0,0 7.6407,11.2109 14.9243,23.9692 21.0218,35.449 2.4811,4.6681 4.9135,9.3757 7.1902,13.9482 0,0 0,0 0,0 10.5531,21.7512 18.8157,41.9981 21.1721,62.451 z"
         transform="translate(-787.31618,131.6482)" />
    </clipPath>
    <inkscape:path-effect
       effect="envelope"
       id="path-effect21"
       is_visible="true"
       lpeversion="1"
       yy="true"
       xx="true"
       bendpath1="m 2416.7904,2035.2596 c 182.0892,41.4361 260.4047,72.9707 389.965,43.4202 35.1679,-8.0212 114.0967,-83.6558 187.627,-43.4202"
       bendpath2="m 2954.2815,2051.6152 40.1009,340.6159"
       bendpath3="m 2416.7904,2392.2311 130.9611,-53.6143 446.6309,53.6143"
       bendpath4="m 2416.7904,2035.2596 56.618,106.0438 -56.618,250.9277"
       bendpath1-nodetypes="csc"
       bendpath2-nodetypes="cc"
       bendpath3-nodetypes="ccc"
       bendpath4-nodetypes="ccc" />
    <radialGradient
       inkscape:collect="always"
       xlink:href="#linearGradient1"
       id="radialGradient11029"
       gradientUnits="userSpaceOnUse"
       gradientTransform="matrix(1.6132349,0.00402004,-0.004202,1.6862531,2104.5184,481.33733)"
       cx="-250.91455"
       cy="1149.5624"
       fx="-250.91455"
       fy="1149.5624"
       r="264.58334" />
    <clipPath
       clipPathUnits="userSpaceOnUse"
       id="clipPath28">
      <path
         style="opacity:0.5;fill:#0ca1ee;fill-opacity:1;stroke-width:2.87999"
         id="path28"
         inkscape:path-effect="#path-effect11007"
         sodipodi:type="arc"
         sodipodi:cx="2705.5864"
         sodipodi:cy="2213.7454"
         sodipodi:rx="288.79599"
         sodipodi:ry="132.9782"
         d="m 2971.7178,2219.2554 c 2.8532,24.7638 -3.3598,48.4153 -16.0328,72.7734 -5.3184,10.1917 -11.8889,20.3426 -19.5859,29.0963 0,0 0,0 0,0 -11.4732,12.8847 -25.7668,23.4099 -45.2469,30.7059 -14.7105,5.5806 -31.673,9.386 -50.8016,11.4295 -7.1879,0.774 -14.7244,1.3564 -22.5356,1.7248 -5.7371,0.2823 -11.9684,0.502 -18.6218,0.6124 -29.2469,-0.8923 -61.7612,-5.1267 -91.4487,-8.5873 -3.0359,-0.3545 -6.045,-0.7028 -9.0791,-1.0493 -29.5157,-3.3702 -46.855,-4.9063 -75.9645,-7.5127 -26.9963,-2.413 -53.3852,-4.8187 -76.5702,-9.0615 -6.5301,1.051 -12.8264,1.6153 -18.8802,1.6637 -17.9047,0.149 -33.0365,-4.2452 -45.0572,-12.7005 -11.9858,-8.4309 -20.1849,-20.4128 -25.0722,-34.2772 -4.8874,-13.8645 -6.3082,-29.0749 -5.6755,-44.3168 0.627,-15.1061 3.2793,-30.4392 6.4902,-44.8316 4.3449,-19.4749 11.4327,-44.5826 17.8239,-62.0134 0,0 0,0 0,0 -4.4775,-15.452 -4.0119,-30.8198 4.7885,-43.9286 8.8056,-13.1164 25.0512,-22.4094 48.2833,-25.9062 6.2312,-0.9363 12.8542,-1.4402 19.8669,-1.5472 24.772,0.2392 51.3124,4.9314 80.8671,9.8326 27.4634,4.5553 52.6402,8.1688 79.1489,8.3206 3.053,0.017 6.0865,-0.012 9.1086,-0.088 32.0005,-0.8033 57.8334,-6.6644 85.8775,-11.8535 5.5048,-1.0784 10.8574,-3.0107 15.491,-4.6715 6.5094,-2.2898 12.4423,-4.3471 18.3906,-5.8526 15.7811,-3.9758 29.5656,-3.6833 42.7329,1.7347 17.3038,7.1348 30.6812,21.4284 42.3187,38.4558 0,0 0,0 0,0 7.6407,11.2109 14.9243,23.9692 21.0218,35.449 2.4811,4.6681 4.9135,9.3757 7.1902,13.9482 0,0 0,0 0,0 10.5531,21.7512 18.8157,41.9981 21.1721,62.451 z"
         transform="translate(-787.31618,131.6482)" />
    </clipPath>
    <inkscape:path-effect
       effect="envelope"
       id="path-effect28"
       is_visible="true"
       lpeversion="1"
       yy="true"
       xx="true"
       bendpath1="m 2416.7904,2035.2596 c 182.0892,41.4361 260.4047,72.9707 389.965,43.4202 35.1679,-8.0212 114.0967,-83.6558 187.627,-43.4202"
       bendpath2="m 2954.2815,2051.6152 40.1009,340.6159"
       bendpath3="m 2416.7904,2392.2311 130.9611,-53.6143 446.6309,53.6143"
       bendpath4="m 2416.7904,2035.2596 56.618,106.0438 -56.618,250.9277"
       bendpath1-nodetypes="csc"
       bendpath2-nodetypes="cc"
       bendpath3-nodetypes="ccc"
       bendpath4-nodetypes="ccc" />
    <radialGradient
       inkscape:collect="always"
       xlink:href="#linearGradient1"
       id="radialGradient11028"
       gradientUnits="userSpaceOnUse"
       gradientTransform="matrix(1.6132349,0.00402004,-0.004202,1.6862531,2104.5184,481.33733)"
       cx="-250.91455"
       cy="1149.5624"
       fx="-250.91455"
       fy="1149.5624"
       r="264.58334" />
    <clipPath
       clipPathUnits="userSpaceOnUse"
       id="clipPath35">
      <path
         style="opacity:0.5;fill:#0ca1ee;fill-opacity:1;stroke-width:2.87999"
         id="path35"
         inkscape:path-effect="#path-effect11007"
         sodipodi:type="arc"
         sodipodi:cx="2705.5864"
         sodipodi:cy="2213.7454"
         sodipodi:rx="288.79599"
         sodipodi:ry="132.9782"
         d="m 2971.7178,2219.2554 c 2.8532,24.7638 -3.3598,48.4153 -16.0328,72.7734 -5.3184,10.1917 -11.8889,20.3426 -19.5859,29.0963 0,0 0,0 0,0 -11.4732,12.8847 -25.7668,23.4099 -45.2469,30.7059 -14.7105,5.5806 -31.673,9.386 -50.8016,11.4295 -7.1879,0.774 -14.7244,1.3564 -22.5356,1.7248 -5.7371,0.2823 -11.9684,0.502 -18.6218,0.6124 -29.2469,-0.8923 -61.7612,-5.1267 -91.4487,-8.5873 -3.0359,-0.3545 -6.045,-0.7028 -9.0791,-1.0493 -29.5157,-3.3702 -46.855,-4.9063 -75.9645,-7.5127 -26.9963,-2.413 -53.3852,-4.8187 -76.5702,-9.0615 -6.5301,1.051 -12.8264,1.6153 -18.8802,1.6637 -17.9047,0.149 -33.0365,-4.2452 -45.0572,-12.7005 -11.9858,-8.4309 -20.1849,-20.4128 -25.0722,-34.2772 -4.8874,-13.8645 -6.3082,-29.0749 -5.6755,-44.3168 0.627,-15.1061 3.2793,-30.4392 6.4902,-44.8316 4.3449,-19.4749 11.4327,-44.5826 17.8239,-62.0134 0,0 0,0 0,0 -4.4775,-15.452 -4.0119,-30.8198 4.7885,-43.9286 8.8056,-13.1164 25.0512,-22.4094 48.2833,-25.9062 6.2312,-0.9363 12.8542,-1.4402 19.8669,-1.5472 24.772,0.2392 51.3124,4.9314 80.8671,9.8326 27.4634,4.5553 52.6402,8.1688 79.1489,8.3206 3.053,0.017 6.0865,-0.012 9.1086,-0.088 32.0005,-0.8033 57.8334,-6.6644 85.8775,-11.8535 5.5048,-1.0784 10.8574,-3.0107 15.491,-4.6715 6.5094,-2.2898 12.4423,-4.3471 18.3906,-5.8526 15.7811,-3.9758 29.5656,-3.6833 42.7329,1.7347 17.3038,7.1348 30.6812,21.4284 42.3187,38.4558 0,0 0,0 0,0 7.6407,11.2109 14.9243,23.9692 21.0218,35.449 2.4811,4.6681 4.9135,9.3757 7.1902,13.9482 0,0 0,0 0,0 10.5531,21.7512 18.8157,41.9981 21.1721,62.451 z"
         transform="translate(-787.31618,131.6482)" />
    </clipPath>
    <inkscape:path-effect
       effect="envelope"
       id="path-effect35"
       is_visible="true"
       lpeversion="1"
       yy="true"
       xx="true"
       bendpath1="m 2416.7904,2035.2596 c 182.0892,41.4361 260.4047,72.9707 389.965,43.4202 35.1679,-8.0212 114.0967,-83.6558 187.627,-43.4202"
       bendpath2="m 2954.2815,2051.6152 40.1009,340.6159"
       bendpath3="m 2416.7904,2392.2311 130.9611,-53.6143 446.6309,53.6143"
       bendpath4="m 2416.7904,2035.2596 56.618,106.0438 -56.618,250.9277"
       bendpath1-nodetypes="csc"
       bendpath2-nodetypes="cc"
       bendpath3-nodetypes="ccc"
       bendpath4-nodetypes="ccc" />
    <radialGradient
       inkscape:collect="always"
       xlink:href="#linearGradient1"
       id="radialGradient11027"
       gradientUnits="userSpaceOnUse"
       gradientTransform="matrix(1.6132349,0.00402004,-0.004202,1.6862531,2104.5184,481.33733)"
       cx="-250.91455"
       cy="1149.5624"
       fx="-250.91455"
       fy="1149.5624"
       r="264.58334" />
    <clipPath
       clipPathUnits="userSpaceOnUse"
       id="clipPath42">
      <path
         style="opacity:0.5;fill:#0ca1ee;fill-opacity:1;stroke-width:2.87999"
         id="path42"
         inkscape:path-effect="#path-effect11007"
         sodipodi:type="arc"
         sodipodi:cx="2705.5864"
         sodipodi:cy="2213.7454"
         sodipodi:rx="288.79599"
         sodipodi:ry="132.9782"
         d="m 2971.7178,2219.2554 c 2.8532,24.7638 -3.3598,48.4153 -16.0328,72.7734 -5.3184,10.1917 -11.8889,20.3426 -19.5859,29.0963 0,0 0,0 0,0 -11.4732,12.8847 -25.7668,23.4099 -45.2469,30.7059 -14.7105,5.5806 -31.673,9.386 -50.8016,11.4295 -7.1879,0.774 -14.7244,1.3564 -22.5356,1.7248 -5.7371,0.2823 -11.9684,0.502 -18.6218,0.6124 -29.2469,-0.8923 -61.7612,-5.1267 -91.4487,-8.5873 -3.0359,-0.3545 -6.045,-0.7028 -9.0791,-1.0493 -29.5157,-3.3702 -46.855,-4.9063 -75.9645,-7.5127 -26.9963,-2.413 -53.3852,-4.8187 -76.5702,-9.0615 -6.5301,1.051 -12.8264,1.6153 -18.8802,1.6637 -17.9047,0.149 -33.0365,-4.2452 -45.0572,-12.7005 -11.9858,-8.4309 -20.1849,-20.4128 -25.0722,-34.2772 -4.8874,-13.8645 -6.3082,-29.0749 -5.6755,-44.3168 0.627,-15.1061 3.2793,-30.4392 6.4902,-44.8316 4.3449,-19.4749 11.4327,-44.5826 17.8239,-62.0134 0,0 0,0 0,0 -4.4775,-15.452 -4.0119,-30.8198 4.7885,-43.9286 8.8056,-13.1164 25.0512,-22.4094 48.2833,-25.9062 6.2312,-0.9363 12.8542,-1.4402 19.8669,-1.5472 24.772,0.2392 51.3124,4.9314 80.8671,9.8326 27.4634,4.5553 52.6402,8.1688 79.1489,8.3206 3.053,0.017 6.0865,-0.012 9.1086,-0.088 32.0005,-0.8033 57.8334,-6.6644 85.8775,-11.8535 5.5048,-1.0784 10.8574,-3.0107 15.491,-4.6715 6.5094,-2.2898 12.4423,-4.3471 18.3906,-5.8526 15.7811,-3.9758 29.5656,-3.6833 42.7329,1.7347 17.3038,7.1348 30.6812,21.4284 42.3187,38.4558 0,0 0,0 0,0 7.6407,11.2109 14.9243,23.9692 21.0218,35.449 2.4811,4.6681 4.9135,9.3757 7.1902,13.9482 0,0 0,0 0,0 10.5531,21.7512 18.8157,41.9981 21.1721,62.451 z"
         transform="translate(-787.31618,131.6482)" />
    </clipPath>
    <inkscape:path-effect
       effect="envelope"
       id="path-effect42"
       is_visible="true"
       lpeversion="1"
       yy="true"
       xx="true"
       bendpath1="m 2416.7904,2035.2596 c 182.0892,41.4361 260.4047,72.9707 389.965,43.4202 35.1679,-8.0212 114.0967,-83.6558 187.627,-43.4202"
       bendpath2="m 2954.2815,2051.6152 40.1009,340.6159"
       bendpath3="m 2416.7904,2392.2311 130.9611,-53.6143 446.6309,53.6143"
       bendpath4="m 2416.7904,2035.2596 56.618,106.0438 -56.618,250.9277"
       bendpath1-nodetypes="csc"
       bendpath2-nodetypes="cc"
       bendpath3-nodetypes="ccc"
       bendpath4-nodetypes="ccc" />
    <radialGradient
       inkscape:collect="always"
       xlink:href="#linearGradient1"
       id="radialGradient11026"
       gradientUnits="userSpaceOnUse"
       gradientTransform="matrix(1.6132349,0.00402004,-0.004202,1.6862531,2104.5184,481.33733)"
       cx="-250.91455"
       cy="1149.5624"
       fx="-250.91455"
       fy="1149.5624"
       r="264.58334" />
    <clipPath
       clipPathUnits="userSpaceOnUse"
       id="clipPath49">
      <path
         style="opacity:0.5;fill:#0ca1ee;fill-opacity:1;stroke-width:2.87999"
         id="path49"
         inkscape:path-effect="#path-effect11007"
         sodipodi:type="arc"
         sodipodi:cx="2705.5864"
         sodipodi:cy="2213.7454"
         sodipodi:rx="288.79599"
         sodipodi:ry="132.9782"
         d="m 2971.7178,2219.2554 c 2.8532,24.7638 -3.3598,48.4153 -16.0328,72.7734 -5.3184,10.1917 -11.8889,20.3426 -19.5859,29.0963 0,0 0,0 0,0 -11.4732,12.8847 -25.7668,23.4099 -45.2469,30.7059 -14.7105,5.5806 -31.673,9.386 -50.8016,11.4295 -7.1879,0.774 -14.7244,1.3564 -22.5356,1.7248 -5.7371,0.2823 -11.9684,0.502 -18.6218,0.6124 -29.2469,-0.8923 -61.7612,-5.1267 -91.4487,-8.5873 -3.0359,-0.3545 -6.045,-0.7028 -9.0791,-1.0493 -29.5157,-3.3702 -46.855,-4.9063 -75.9645,-7.5127 -26.9963,-2.413 -53.3852,-4.8187 -76.5702,-9.0615 -6.5301,1.051 -12.8264,1.6153 -18.8802,1.6637 -17.9047,0.149 -33.0365,-4.2452 -45.0572,-12.7005 -11.9858,-8.4309 -20.1849,-20.4128 -25.0722,-34.2772 -4.8874,-13.8645 -6.3082,-29.0749 -5.6755,-44.3168 0.627,-15.1061 3.2793,-30.4392 6.4902,-44.8316 4.3449,-19.4749 11.4327,-44.5826 17.8239,-62.0134 0,0 0,0 0,0 -4.4775,-15.452 -4.0119,-30.8198 4.7885,-43.9286 8.8056,-13.1164 25.0512,-22.4094 48.2833,-25.9062 6.2312,-0.9363 12.8542,-1.4402 19.8669,-1.5472 24.772,0.2392 51.3124,4.9314 80.8671,9.8326 27.4634,4.5553 52.6402,8.1688 79.1489,8.3206 3.053,0.017 6.0865,-0.012 9.1086,-0.088 32.0005,-0.8033 57.8334,-6.6644 85.8775,-11.8535 5.5048,-1.0784 10.8574,-3.0107 15.491,-4.6715 6.5094,-2.2898 12.4423,-4.3471 18.3906,-5.8526 15.7811,-3.9758 29.5656,-3.6833 42.7329,1.7347 17.3038,7.1348 30.6812,21.4284 42.3187,38.4558 0,0 0,0 0,0 7.6407,11.2109 14.9243,23.9692 21.0218,35.449 2.4811,4.6681 4.9135,9.3757 7.1902,13.9482 0,0 0,0 0,0 10.5531,21.7512 18.8157,41.9981 21.1721,62.451 z"
         transform="translate(-787.31618,131.6482)" />
    </clipPath>
    <inkscape:path-effect
       effect="envelope"
       id="path-effect49"
       is_visible="true"
       lpeversion="1"
       yy="true"
       xx="true"
       bendpath1="m 2416.7904,2035.2596 c 182.0892,41.4361 260.4047,72.9707 389.965,43.4202 35.1679,-8.0212 114.0967,-83.6558 187.627,-43.4202"
       bendpath2="m 2954.2815,2051.6152 40.1009,340.6159"
       bendpath3="m 2416.7904,2392.2311 130.9611,-53.6143 446.6309,53.6143"
       bendpath4="m 2416.7904,2035.2596 56.618,106.0438 -56.618,250.9277"
       bendpath1-nodetypes="csc"
       bendpath2-nodetypes="cc"
       bendpath3-nodetypes="ccc"
       bendpath4-nodetypes="ccc" />
    <radialGradient
       inkscape:collect="always"
       xlink:href="#linearGradient1"
       id="radialGradient11025"
       gradientUnits="userSpaceOnUse"
       gradientTransform="matrix(1.6132349,0.00402004,-0.004202,1.6862531,2104.5184,481.33733)"
       cx="-250.91455"
       cy="1149.5624"
       fx="-250.91455"
       fy="1149.5624"
       r="264.58334" />
    <clipPath
       clipPathUnits="userSpaceOnUse"
       id="clipPath56">
      <path
         style="opacity:0.5;fill:#0ca1ee;fill-opacity:1;stroke-width:2.87999"
         id="path56"
         inkscape:path-effect="#path-effect11007"
         sodipodi:type="arc"
         sodipodi:cx="2705.5864"
         sodipodi:cy="2213.7454"
         sodipodi:rx="288.79599"
         sodipodi:ry="132.9782"
         d="m 2971.7178,2219.2554 c 2.8532,24.7638 -3.3598,48.4153 -16.0328,72.7734 -5.3184,10.1917 -11.8889,20.3426 -19.5859,29.0963 0,0 0,0 0,0 -11.4732,12.8847 -25.7668,23.4099 -45.2469,30.7059 -14.7105,5.5806 -31.673,9.386 -50.8016,11.4295 -7.1879,0.774 -14.7244,1.3564 -22.5356,1.7248 -5.7371,0.2823 -11.9684,0.502 -18.6218,0.6124 -29.2469,-0.8923 -61.7612,-5.1267 -91.4487,-8.5873 -3.0359,-0.3545 -6.045,-0.7028 -9.0791,-1.0493 -29.5157,-3.3702 -46.855,-4.9063 -75.9645,-7.5127 -26.9963,-2.413 -53.3852,-4.8187 -76.5702,-9.0615 -6.5301,1.051 -12.8264,1.6153 -18.8802,1.6637 -17.9047,0.149 -33.0365,-4.2452 -45.0572,-12.7005 -11.9858,-8.4309 -20.1849,-20.4128 -25.0722,-34.2772 -4.8874,-13.8645 -6.3082,-29.0749 -5.6755,-44.3168 0.627,-15.1061 3.2793,-30.4392 6.4902,-44.8316 4.3449,-19.4749 11.4327,-44.5826 17.8239,-62.0134 0,0 0,0 0,0 -4.4775,-15.452 -4.0119,-30.8198 4.7885,-43.9286 8.8056,-13.1164 25.0512,-22.4094 48.2833,-25.9062 6.2312,-0.9363 12.8542,-1.4402 19.8669,-1.5472 24.772,0.2392 51.3124,4.9314 80.8671,9.8326 27.4634,4.5553 52.6402,8.1688 79.1489,8.3206 3.053,0.017 6.0865,-0.012 9.1086,-0.088 32.0005,-0.8033 57.8334,-6.6644 85.8775,-11.8535 5.5048,-1.0784 10.8574,-3.0107 15.491,-4.6715 6.5094,-2.2898 12.4423,-4.3471 18.3906,-5.8526 15.7811,-3.9758 29.5656,-3.6833 42.7329,1.7347 17.3038,7.1348 30.6812,21.4284 42.3187,38.4558 0,0 0,0 0,0 7.6407,11.2109 14.9243,23.9692 21.0218,35.449 2.4811,4.6681 4.9135,9.3757 7.1902,13.9482 0,0 0,0 0,0 10.5531,21.7512 18.8157,41.9981 21.1721,62.451 z"
         transform="translate(-787.31618,131.6482)" />
    </clipPath>
    <inkscape:path-effect
       effect="envelope"
       id="path-effect56"
       is_visible="true"
       lpeversion="1"
       yy="true"
       xx="true"
       bendpath1="m 2416.7904,2035.2596 c 182.0892,41.4361 260.4047,72.9707 389.965,43.4202 35.1679,-8.0212 114.0967,-83.6558 187.627,-43.4202"
       bendpath2="m 2954.2815,2051.6152 40.1009,340.6159"
       bendpath3="m 2416.7904,2392.2311 130.9611,-53.6143 446.6309,53.6143"
       bendpath4="m 2416.7904,2035.2596 56.618,106.0438 -56.618,250.9277"
       bendpath1-nodetypes="csc"
       bendpath2-nodetypes="cc"
       bendpath3-nodetypes="ccc"
       bendpath4-nodetypes="ccc" />
  </defs>
  <g
     inkscape:label="Layer 1"
     inkscape:groupmode="layer"
     id="layer1">
    <g
       id="g11071"
       transform="matrix(0.53200735,-0.11771901,0.17986707,0.86701591,-2495.18,-1483.8185)"
       clip-path="url(#clipPath11076)"
       inkscape:export-filename="g11071b.jxl.png"
       inkscape:export-xdpi="96"
       inkscape:export-ydpi="96">
      <rect
         style="opacity:1;fill:url(#radialGradient11032);stroke-width:4.16164"
         id="rect11018"
         width="529.16669"
         height="529.16669"
         x="1661.5342"
         y="2035.2598"
         clip-path="url(#clipPath11010)"
         transform="matrix(3.0200944,0,0,3.0200944,-1341.717,-4452.0894)" />
      <rect
         style="opacity:1;fill:url(#radialGradient11031);stroke-width:4.16164"
         id="rect11019"
         width="529.16669"
         height="529.16669"
         x="1661.5342"
         y="2035.2598"
         clip-path="url(#clipPath11010)"
         transform="matrix(2.6824728,0,0,2.6824728,-862.79272,-3710.6155)" />
      <rect
         style="opacity:1;fill:url(#radialGradient11030);stroke-width:4.16164"
         id="rect11020"
         width="529.16669"
         height="529.16669"
         x="1661.5342"
         y="2035.2598"
         clip-path="url(#clipPath11010)"
         transform="matrix(2.3179197,0,0,2.3179197,-291.70225,-2894.3735)" />
      <rect
         style="opacity:1;fill:url(#radialGradient11029);stroke-width:4.16164"
         id="rect11021"
         width="529.16669"
         height="529.16669"
         x="1661.5342"
         y="2035.2598"
         clip-path="url(#clipPath11010)"
         transform="matrix(1.9999998,0,0,1.9999998,217.33464,-2196.1678)" />
      <rect
         style="opacity:1;fill:url(#radialGradient11028);stroke-width:4.16164"
         id="rect11022"
         width="529.16669"
         height="529.16669"
         x="1661.5342"
         y="2035.2598"
         clip-path="url(#clipPath11010)"
         transform="matrix(1.6439465,0,0,1.6439465,809.69614,-1414.2149)" />
      <rect
         style="opacity:1;fill:url(#radialGradient11027);stroke-width:4.16164"
         id="rect11023"
         width="529.16669"
         height="529.16669"
         x="1661.5342"
         y="2035.2598"
         clip-path="url(#clipPath11010)"
         transform="matrix(1.3740069,0,0,1.3740069,1258.7914,-821.38206)" />
      <rect
         style="opacity:1;fill:url(#radialGradient11026);stroke-width:4.16164"
         id="rect11024"
         width="529.16669"
         height="529.16669"
         x="1661.5342"
         y="2035.2598"
         clip-path="url(#clipPath11010)"
         transform="matrix(1.15896,0,0,1.15896,1616.5624,-349.10284)" />
      <rect
         style="opacity:1;fill:url(#radialGradient11025);stroke-width:4.16164"
         id="rect11025"
         width="529.16669"
         height="529.16669"
         x="1661.5342"
         y="2035.2598"
         clip-path="url(#clipPath11010)"
         transform="translate(1881.0221)" />
    </g>
  </g>
</svg>
