<?xml version="1.0" encoding="UTF-8" standalone="no"?>
<!-- Created with Inkscape (http://www.inkscape.org/) -->

<svg
   width="210mm"
   height="297mm"
   viewBox="0 0 210 297"
   version="1.1"
   id="svg1"
   xml:space="preserve"
   inkscape:version="1.3.2 (091e20ef0f, 2023-11-25)"
   sodipodi:docname="chartreuse.svg"
   xmlns:inkscape="http://www.inkscape.org/namespaces/inkscape"
   xmlns:sodipodi="http://sodipodi.sourceforge.net/DTD/sodipodi-0.dtd"
   xmlns:xlink="http://www.w3.org/1999/xlink"
   xmlns="http://www.w3.org/2000/svg"
   xmlns:svg="http://www.w3.org/2000/svg"><sodipodi:namedview
     id="namedview1"
     pagecolor="#ffffff"
     bordercolor="#000000"
     borderopacity="0.25"
     inkscape:showpageshadow="2"
     inkscape:pageopacity="0.0"
     inkscape:pagecheckerboard="0"
     inkscape:deskcolor="#d1d1d1"
     inkscape:document-units="mm"
     inkscape:zoom="0.10551836"
     inkscape:cx="516.49782"
     inkscape:cy="3691.3009"
     inkscape:window-width="1366"
     inkscape:window-height="699"
     inkscape:window-x="0"
     inkscape:window-y="0"
     inkscape:window-maximized="1"
     inkscape:current-layer="layer1" /><defs
     id="defs1"><linearGradient
       id="linearGradient1016"
       inkscape:collect="always"><stop
         style="stop-color:#000000;stop-opacity:1;"
         offset="0"
         id="stop1016" /><stop
         style="stop-color:#000000;stop-opacity:0;"
         offset="1"
         id="stop1017" /></linearGradient><linearGradient
       id="linearGradient7"
       inkscape:collect="always"><stop
         style="stop-color:#ddf210;stop-opacity:1;"
         offset="0"
         id="stop7" /><stop
         style="stop-color:#abce12;stop-opacity:1;"
         offset="0.25170651"
         id="stop9" /><stop
         style="stop-color:#6ea815;stop-opacity:1;"
         offset="0.44329616"
         id="stop10" /><stop
         style="stop-color:#3d8c19;stop-opacity:1;"
         offset="0.56799108"
         id="stop11" /><stop
         style="stop-color:#165b13;stop-opacity:1;"
         offset="0.74841017"
         id="stop12" /><stop
         style="stop-color:#051505;stop-opacity:1;"
         offset="1"
         id="stop8" /></linearGradient><radialGradient
       inkscape:collect="always"
       xlink:href="#linearGradient7"
       id="radialGradient8"
       cx="613.82867"
       cy="582.53986"
       fx="613.82867"
       fy="582.53986"
       r="84.633018"
       gradientTransform="matrix(2.752744,0.97324702,-0.8410627,2.378872,-978.98215,-1044.8777)"
       gradientUnits="userSpaceOnUse" /><filter
       inkscape:label="Air Spray"
       inkscape:menu="Scatter"
       inkscape:menu-tooltip="Convert to small scattered particles with some thickness"
       width="1.5216219"
       height="1.5216219"
       y="-0.26081096"
       x="-0.26081096"
       style="color-interpolation-filters:sRGB;"
       id="filter28"><feGaussianBlur
         stdDeviation="32.184705"
         result="result1"
         id="feGaussianBlur27" /><feBlend
         in2="result1"
         result="fbSourceGraphic"
         mode="multiply"
         id="feBlend27" /><feTurbulence
         baseFrequency="0.8"
         type="fractalNoise"
         seed="0"
         numOctaves="3"
         result="result3"
         id="feTurbulence27" /><feDisplacementMap
         in="fbSourceGraphic"
         xChannelSelector="R"
         yChannelSelector="G"
         scale="50"
         result="result2"
         in2="result3"
         id="feDisplacementMap27" /><feMorphology
         radius="1"
         operator="dilate"
         result="result4"
         id="feMorphology27" /><feBlend
         mode="screen"
         in2="result2"
         id="feBlend28" /></filter><radialGradient
       inkscape:collect="always"
       xlink:href="#linearGradient7-6"
       id="radialGradient8-5"
       cx="613.82867"
       cy="582.53986"
       fx="613.82867"
       fy="582.53986"
       r="84.633018"
       gradientTransform="matrix(2.752744,0.97324702,-0.8410627,2.378872,-1023.0167,-1034.099)"
       gradientUnits="userSpaceOnUse" /><linearGradient
       id="linearGradient7-6"
       inkscape:collect="always"><stop
         style="stop-color:#ddf20e;stop-opacity:1;"
         offset="0"
         id="stop7-2" /><stop
         style="stop-color:#abce12;stop-opacity:1;"
         offset="0.25170651"
         id="stop9-9" /><stop
         style="stop-color:#6ea815;stop-opacity:1;"
         offset="0.44329616"
         id="stop10-1" /><stop
         style="stop-color:#3d8c19;stop-opacity:1;"
         offset="0.56799108"
         id="stop11-2" /><stop
         style="stop-color:#165b13;stop-opacity:1;"
         offset="0.74841017"
         id="stop12-7" /><stop
         style="stop-color:#051505;stop-opacity:1;"
         offset="1"
         id="stop8-0" /></linearGradient><filter
       y="0"
       height="1"
       x="0"
       width="1"
       inkscape:menu-tooltip="Aquarelle paper effect which can be used for pictures as for objects"
       inkscape:menu="Textures"
       inkscape:label="Rough Paper"
       style="color-interpolation-filters:sRGB;"
       id="filter62"><feTurbulence
         type="fractalNoise"
         baseFrequency="0.04"
         numOctaves="5"
         seed="0"
         result="result4"
         id="feTurbulence61" /><feDisplacementMap
         in="SourceGraphic"
         in2="result4"
         yChannelSelector="G"
         xChannelSelector="R"
         scale="10"
         result="result3"
         id="feDisplacementMap61" /><feDiffuseLighting
         lighting-color="rgb(233,230,215)"
         diffuseConstant="1"
         surfaceScale="2"
         result="result1"
         in="result4"
         id="feDiffuseLighting61"><feDistantLight
           azimuth="235"
           elevation="40"
           id="feDistantLight61" /></feDiffuseLighting><feComposite
         operator="in"
         in="result3"
         in2="result1"
         result="result2"
         id="feComposite61" /><feComposite
         in2="result1"
         result="result5"
         operator="arithmetic"
         k1="1.7"
         id="feComposite62" /><feBlend
         in="result5"
         in2="result3"
         mode="normal"
         id="feBlend62" /></filter><linearGradient
       inkscape:collect="always"
       xlink:href="#linearGradient1016"
       id="linearGradient1017"
       x1="210.31833"
       y1="1449.0294"
       x2="210.31833"
       y2="1750.5812"
       gradientUnits="userSpaceOnUse"
       gradientTransform="matrix(0.45092971,0,0,0.45092971,387.09376,827.75225)" /><linearGradient
       inkscape:collect="always"
       xlink:href="#linearGradient1016"
       id="linearGradient1018"
       gradientUnits="userSpaceOnUse"
       gradientTransform="matrix(0.45092971,0,0,0.45092971,189.99718,374.09866)"
       x1="210.31833"
       y1="1449.0294"
       x2="210.31833"
       y2="1750.5812" /><filter
       inkscape:collect="always"
       style="color-interpolation-filters:sRGB"
       id="filter1260"
       x="-0.016585814"
       y="-0.014590738"
       width="1.0331716"
       height="1.0291815"><feGaussianBlur
         inkscape:collect="always"
         stdDeviation="3.6276063"
         id="feGaussianBlur1260" /></filter><filter
       inkscape:collect="always"
       style="color-interpolation-filters:sRGB"
       id="filter1261"
       x="-0.034737487"
       y="-0.030558981"
       width="1.069475"
       height="1.061118"><feGaussianBlur
         inkscape:collect="always"
         stdDeviation="7.5976935"
         id="feGaussianBlur1261" /></filter></defs><g
     inkscape:label="Layer 1"
     inkscape:groupmode="layer"
     id="layer1"><rect
       style="opacity:0.171661;fill:url(#radialGradient8-5);stroke-width:0.0927104;filter:url(#filter62)"
       id="rect1-3"
       width="300"
       height="300"
       x="62.219147"
       y="834.0296"
       clip-path="none"
       transform="matrix(1.4732965,0,0,1.4732965,-646.2431,-511.18711)" /><circle
       style="opacity:0.321034;fill:#ffff00;fill-opacity:1;stroke-width:0.0780521"
       id="path186"
       cx="137.29491"
       cy="1445.3242"
       r="5.7636137" /><rect
       style="fill:url(#radialGradient8);stroke-width:0.0927104"
       id="rect1"
       width="300"
       height="300"
       x="106.25373"
       y="823.25092"
       transform="matrix(1.1611461,0,0,1.1785297,-65.46621,-146.97472)" /><g
       id="g1260"
       transform="matrix(0.45826864,-0.14259527,0.29710987,0.9548433,-53.771171,-22.410146)"
       style="opacity:0.534168;mix-blend-mode:normal;filter:url(#filter1261)"><g
         id="g1198"
         transform="translate(115.72574,851.24806)"><use
           id="use1185"
           inkscape:spray-origin="#rect1017"
           xlink:href="#rect1017"
           transform="matrix(1.2869101,0,0,1.2869101,-178.27081,-1047.3848)" /><use
           id="use1186"
           inkscape:spray-origin="#rect1017"
           xlink:href="#rect1017"
           transform="matrix(1.2449741,0,0,1.2449741,-184.65667,-1268.572)" /><use
           id="use1187"
           inkscape:spray-origin="#rect1017"
           xlink:href="#rect1017"
           transform="matrix(1.0730394,0,0,1.0730394,-299.923,-933.07862)" /><use
           id="use1188"
           inkscape:spray-origin="#rect1017"
           xlink:href="#rect1017"
           transform="matrix(0.89078716,0,0,0.89078716,-209.42874,-665.56534)" /><use
           id="use1189"
           inkscape:spray-origin="#rect1017"
           xlink:href="#rect1017"
           transform="matrix(0.8908168,0,0,0.8908168,-191.15816,-608.21194)" /><use
           id="use1190"
           inkscape:spray-origin="#rect1017"
           xlink:href="#rect1017"
           transform="matrix(1.0117044,0,0,1.0117044,-177.9827,-855.91708)" /><use
           id="use1191"
           inkscape:spray-origin="#rect1017"
           xlink:href="#rect1017"
           transform="matrix(1.2516697,0,0,1.2516697,-224.87932,-1258.5678)" /><use
           id="use1192"
           inkscape:spray-origin="#rect1017"
           xlink:href="#rect1017"
           transform="matrix(0.90789045,0,0,0.90789045,-69.087268,-717.10389)" /><use
           id="use1193"
           inkscape:spray-origin="#rect1017"
           xlink:href="#rect1017"
           transform="matrix(0.89210353,0,0,0.89210353,-62.474842,-760.21846)" /><use
           id="use1194"
           inkscape:spray-origin="#rect1017"
           xlink:href="#rect1017"
           transform="matrix(0.85113136,0,0,0.85113136,-165.08199,-621.79654)" /><use
           id="use1195"
           inkscape:spray-origin="#rect1017"
           xlink:href="#rect1017"
           transform="matrix(1.1831311,0,0,1.1831311,-307.27694,-1135.4169)" /><use
           id="use1196"
           inkscape:spray-origin="#rect1017"
           xlink:href="#rect1017"
           transform="matrix(1.0425993,0,0,1.0425993,-248.52656,-1007.7437)" /><use
           id="use1197"
           inkscape:spray-origin="#rect1017"
           xlink:href="#rect1017"
           transform="matrix(1.0706767,0,0,1.0706767,-310.38789,-926.19928)" /><use
           id="use1198"
           inkscape:spray-origin="#rect1017"
           xlink:href="#rect1017"
           transform="matrix(0.76834112,0,0,0.76834112,-138.24205,-465.18667)" /></g><g
         id="g1212"
         transform="translate(115.72574,851.24806)"><use
           id="use1199"
           inkscape:spray-origin="#rect1017"
           xlink:href="#rect1017"
           transform="matrix(1.2869101,0,0,1.2869101,-178.27081,-1047.3848)" /><use
           id="use1200"
           inkscape:spray-origin="#rect1017"
           xlink:href="#rect1017"
           transform="matrix(1.2449741,0,0,1.2449741,-184.65667,-1268.572)" /><use
           id="use1201"
           inkscape:spray-origin="#rect1017"
           xlink:href="#rect1017"
           transform="matrix(1.0730394,0,0,1.0730394,-299.923,-933.07862)" /><use
           id="use1202"
           inkscape:spray-origin="#rect1017"
           xlink:href="#rect1017"
           transform="matrix(0.89078716,0,0,0.89078716,-209.42874,-665.56534)" /><use
           id="use1203"
           inkscape:spray-origin="#rect1017"
           xlink:href="#rect1017"
           transform="matrix(0.8908168,0,0,0.8908168,-191.15816,-608.21194)" /><use
           id="use1204"
           inkscape:spray-origin="#rect1017"
           xlink:href="#rect1017"
           transform="matrix(1.0117044,0,0,1.0117044,-177.9827,-855.91708)" /><use
           id="use1205"
           inkscape:spray-origin="#rect1017"
           xlink:href="#rect1017"
           transform="matrix(1.2516697,0,0,1.2516697,-224.87932,-1258.5678)" /><use
           id="use1206"
           inkscape:spray-origin="#rect1017"
           xlink:href="#rect1017"
           transform="matrix(0.90789045,0,0,0.90789045,-69.087268,-717.10389)" /><use
           id="use1207"
           inkscape:spray-origin="#rect1017"
           xlink:href="#rect1017"
           transform="matrix(0.89210353,0,0,0.89210353,-62.474842,-760.21846)" /><use
           id="use1208"
           inkscape:spray-origin="#rect1017"
           xlink:href="#rect1017"
           transform="matrix(0.85113136,0,0,0.85113136,-165.08199,-621.79654)" /><use
           id="use1209"
           inkscape:spray-origin="#rect1017"
           xlink:href="#rect1017"
           transform="matrix(1.1831311,0,0,1.1831311,-307.27694,-1135.4169)" /><use
           id="use1210"
           inkscape:spray-origin="#rect1017"
           xlink:href="#rect1017"
           transform="matrix(1.0425993,0,0,1.0425993,-248.52656,-1007.7437)" /><use
           id="use1211"
           inkscape:spray-origin="#rect1017"
           xlink:href="#rect1017"
           transform="matrix(1.0706767,0,0,1.0706767,-310.38789,-926.19928)" /><use
           id="use1212"
           inkscape:spray-origin="#rect1017"
           xlink:href="#rect1017"
           transform="matrix(0.76834112,0,0,0.76834112,-138.24205,-465.18667)" /></g><g
         id="g1226"
         transform="translate(193.81932,768.13663)"><use
           id="use1213"
           inkscape:spray-origin="#rect1017"
           xlink:href="#rect1017"
           transform="matrix(1.2869101,0,0,1.2869101,-178.27081,-1047.3848)" /><use
           id="use1214"
           inkscape:spray-origin="#rect1017"
           xlink:href="#rect1017"
           transform="matrix(1.2449741,0,0,1.2449741,-184.65667,-1268.572)" /><use
           id="use1215"
           inkscape:spray-origin="#rect1017"
           xlink:href="#rect1017"
           transform="matrix(1.0730394,0,0,1.0730394,-299.923,-933.07862)" /><use
           id="use1216"
           inkscape:spray-origin="#rect1017"
           xlink:href="#rect1017"
           transform="matrix(0.89078716,0,0,0.89078716,-209.42874,-665.56534)" /><use
           id="use1217"
           inkscape:spray-origin="#rect1017"
           xlink:href="#rect1017"
           transform="matrix(0.8908168,0,0,0.8908168,-191.15816,-608.21194)" /><use
           id="use1218"
           inkscape:spray-origin="#rect1017"
           xlink:href="#rect1017"
           transform="matrix(1.0117044,0,0,1.0117044,-177.9827,-855.91708)" /><use
           id="use1219"
           inkscape:spray-origin="#rect1017"
           xlink:href="#rect1017"
           transform="matrix(1.2516697,0,0,1.2516697,-224.87932,-1258.5678)" /><use
           id="use1220"
           inkscape:spray-origin="#rect1017"
           xlink:href="#rect1017"
           transform="matrix(0.90789045,0,0,0.90789045,-69.087268,-717.10389)" /><use
           id="use1221"
           inkscape:spray-origin="#rect1017"
           xlink:href="#rect1017"
           transform="matrix(0.89210353,0,0,0.89210353,-62.474842,-760.21846)" /><use
           id="use1222"
           inkscape:spray-origin="#rect1017"
           xlink:href="#rect1017"
           transform="matrix(0.85113136,0,0,0.85113136,-165.08199,-621.79654)" /><use
           id="use1223"
           inkscape:spray-origin="#rect1017"
           xlink:href="#rect1017"
           transform="matrix(1.1831311,0,0,1.1831311,-307.27694,-1135.4169)" /><use
           id="use1224"
           inkscape:spray-origin="#rect1017"
           xlink:href="#rect1017"
           transform="matrix(1.0425993,0,0,1.0425993,-248.52656,-1007.7437)" /><use
           id="use1225"
           inkscape:spray-origin="#rect1017"
           xlink:href="#rect1017"
           transform="matrix(1.0706767,0,0,1.0706767,-310.38789,-926.19928)" /><use
           id="use1226"
           inkscape:spray-origin="#rect1017"
           xlink:href="#rect1017"
           transform="matrix(0.76834112,0,0,0.76834112,-138.24205,-465.18667)" /></g><use
         x="0"
         y="0"
         xlink:href="#g1076"
         id="use1227" /><use
         x="0"
         y="0"
         xlink:href="#g1076"
         id="use1228"
         transform="matrix(-1,0,0,1,402.10036,10.233095)" /><use
         x="0"
         y="0"
         xlink:href="#g1076"
         id="use1229"
         transform="matrix(-1,0,0,1,402.10036,10.233095)" /><use
         x="0"
         y="0"
         xlink:href="#g1076"
         id="use1230"
         transform="matrix(-1,0,0,1,291.51367,151.81342)" /><use
         x="0"
         y="0"
         xlink:href="#g1076"
         id="use1231"
         transform="matrix(-1,0,0,1,291.51367,151.81342)" /><g
         id="g1245"
         transform="translate(213.86995,881.81921)"><use
           id="use1232"
           inkscape:spray-origin="#rect1017"
           xlink:href="#rect1017"
           transform="matrix(1.2869101,0,0,1.2869101,-178.27081,-1047.3848)" /><use
           id="use1233"
           inkscape:spray-origin="#rect1017"
           xlink:href="#rect1017"
           transform="matrix(1.2449741,0,0,1.2449741,-184.65667,-1268.572)" /><use
           id="use1234"
           inkscape:spray-origin="#rect1017"
           xlink:href="#rect1017"
           transform="matrix(1.0730394,0,0,1.0730394,-299.923,-933.07862)" /><use
           id="use1235"
           inkscape:spray-origin="#rect1017"
           xlink:href="#rect1017"
           transform="matrix(0.89078716,0,0,0.89078716,-209.42874,-665.56534)" /><use
           id="use1236"
           inkscape:spray-origin="#rect1017"
           xlink:href="#rect1017"
           transform="matrix(0.8908168,0,0,0.8908168,-191.15816,-608.21194)" /><use
           id="use1237"
           inkscape:spray-origin="#rect1017"
           xlink:href="#rect1017"
           transform="matrix(1.0117044,0,0,1.0117044,-177.9827,-855.91708)" /><use
           id="use1238"
           inkscape:spray-origin="#rect1017"
           xlink:href="#rect1017"
           transform="matrix(1.2516697,0,0,1.2516697,-224.87932,-1258.5678)" /><use
           id="use1239"
           inkscape:spray-origin="#rect1017"
           xlink:href="#rect1017"
           transform="matrix(0.90789045,0,0,0.90789045,-69.087268,-717.10389)" /><use
           id="use1240"
           inkscape:spray-origin="#rect1017"
           xlink:href="#rect1017"
           transform="matrix(0.89210353,0,0,0.89210353,-62.474842,-760.21846)" /><use
           id="use1241"
           inkscape:spray-origin="#rect1017"
           xlink:href="#rect1017"
           transform="matrix(0.85113136,0,0,0.85113136,-165.08199,-621.79654)" /><use
           id="use1242"
           inkscape:spray-origin="#rect1017"
           xlink:href="#rect1017"
           transform="matrix(1.1831311,0,0,1.1831311,-307.27694,-1135.4169)" /><use
           id="use1243"
           inkscape:spray-origin="#rect1017"
           xlink:href="#rect1017"
           transform="matrix(1.0425993,0,0,1.0425993,-248.52656,-1007.7437)" /><use
           id="use1244"
           inkscape:spray-origin="#rect1017"
           xlink:href="#rect1017"
           transform="matrix(1.0706767,0,0,1.0706767,-310.38789,-926.19928)" /><use
           id="use1245"
           inkscape:spray-origin="#rect1017"
           xlink:href="#rect1017"
           transform="matrix(0.76834112,0,0,0.76834112,-138.24205,-465.18667)" /></g><g
         id="g1259"
         transform="translate(213.86995,881.81921)"><use
           id="use1246"
           inkscape:spray-origin="#rect1017"
           xlink:href="#rect1017"
           transform="matrix(1.2869101,0,0,1.2869101,-178.27081,-1047.3848)" /><use
           id="use1247"
           inkscape:spray-origin="#rect1017"
           xlink:href="#rect1017"
           transform="matrix(1.2449741,0,0,1.2449741,-184.65667,-1268.572)" /><use
           id="use1248"
           inkscape:spray-origin="#rect1017"
           xlink:href="#rect1017"
           transform="matrix(1.0730394,0,0,1.0730394,-299.923,-933.07862)" /><use
           id="use1249"
           inkscape:spray-origin="#rect1017"
           xlink:href="#rect1017"
           transform="matrix(0.89078716,0,0,0.89078716,-209.42874,-665.56534)" /><use
           id="use1250"
           inkscape:spray-origin="#rect1017"
           xlink:href="#rect1017"
           transform="matrix(0.8908168,0,0,0.8908168,-191.15816,-608.21194)" /><use
           id="use1251"
           inkscape:spray-origin="#rect1017"
           xlink:href="#rect1017"
           transform="matrix(1.0117044,0,0,1.0117044,-177.9827,-855.91708)" /><use
           id="use1252"
           inkscape:spray-origin="#rect1017"
           xlink:href="#rect1017"
           transform="matrix(1.2516697,0,0,1.2516697,-224.87932,-1258.5678)" /><use
           id="use1253"
           inkscape:spray-origin="#rect1017"
           xlink:href="#rect1017"
           transform="matrix(0.90789045,0,0,0.90789045,-69.087268,-717.10389)" /><use
           id="use1254"
           inkscape:spray-origin="#rect1017"
           xlink:href="#rect1017"
           transform="matrix(0.89210353,0,0,0.89210353,-62.474842,-760.21846)" /><use
           id="use1255"
           inkscape:spray-origin="#rect1017"
           xlink:href="#rect1017"
           transform="matrix(0.85113136,0,0,0.85113136,-165.08199,-621.79654)" /><use
           id="use1256"
           inkscape:spray-origin="#rect1017"
           xlink:href="#rect1017"
           transform="matrix(1.1831311,0,0,1.1831311,-307.27694,-1135.4169)" /><use
           id="use1257"
           inkscape:spray-origin="#rect1017"
           xlink:href="#rect1017"
           transform="matrix(1.0425993,0,0,1.0425993,-248.52656,-1007.7437)" /><use
           id="use1258"
           inkscape:spray-origin="#rect1017"
           xlink:href="#rect1017"
           transform="matrix(1.0706767,0,0,1.0706767,-310.38789,-926.19928)" /><use
           id="use1259"
           inkscape:spray-origin="#rect1017"
           xlink:href="#rect1017"
           transform="matrix(0.76834112,0,0,0.76834112,-138.24205,-465.18667)" /></g></g><rect
       style="opacity:0.17;fill:url(#linearGradient1017);stroke-width:0.0283597"
       id="rect1016"
       width="22.209656"
       height="140.27174"
       x="472.22232"
       y="1483.3092" /><rect
       style="opacity:0.17;fill:url(#linearGradient1018);stroke-width:0.0283597"
       id="rect1017"
       width="22.209656"
       height="140.27174"
       x="275.12573"
       y="1029.6556" /><use
       id="use1027"
       inkscape:spray-origin="#rect1017"
       xlink:href="#rect1017"
       transform="matrix(1.2241588,0,0,1.2241588,-88.882649,-642.81668)" /><use
       id="use1039"
       inkscape:spray-origin="#rect1017"
       xlink:href="#rect1017"
       transform="matrix(0.75999048,0,0,0.75999048,13.642434,-53.711701)" /><g
       id="g1110"
       transform="matrix(0.45826864,-0.14259527,0.29710987,0.9548433,-133.46811,115.51328)"
       style="opacity:0.534168"><g
         id="g1048"
         transform="translate(115.72574,851.24806)"><use
           id="use1021"
           inkscape:spray-origin="#rect1017"
           xlink:href="#rect1017"
           transform="matrix(1.2869101,0,0,1.2869101,-178.27081,-1047.3848)" /><use
           id="use1029"
           inkscape:spray-origin="#rect1017"
           xlink:href="#rect1017"
           transform="matrix(1.2449741,0,0,1.2449741,-184.65667,-1268.572)" /><use
           id="use1030"
           inkscape:spray-origin="#rect1017"
           xlink:href="#rect1017"
           transform="matrix(1.0730394,0,0,1.0730394,-299.923,-933.07862)" /><use
           id="use1031"
           inkscape:spray-origin="#rect1017"
           xlink:href="#rect1017"
           transform="matrix(0.89078716,0,0,0.89078716,-209.42874,-665.56534)" /><use
           id="use1032"
           inkscape:spray-origin="#rect1017"
           xlink:href="#rect1017"
           transform="matrix(0.8908168,0,0,0.8908168,-191.15816,-608.21194)" /><use
           id="use1033"
           inkscape:spray-origin="#rect1017"
           xlink:href="#rect1017"
           transform="matrix(1.0117044,0,0,1.0117044,-177.9827,-855.91708)" /><use
           id="use1034"
           inkscape:spray-origin="#rect1017"
           xlink:href="#rect1017"
           transform="matrix(1.2516697,0,0,1.2516697,-224.87932,-1258.5678)" /><use
           id="use1035"
           inkscape:spray-origin="#rect1017"
           xlink:href="#rect1017"
           transform="matrix(0.90789045,0,0,0.90789045,-69.087268,-717.10389)" /><use
           id="use1036"
           inkscape:spray-origin="#rect1017"
           xlink:href="#rect1017"
           transform="matrix(0.89210353,0,0,0.89210353,-62.474842,-760.21846)" /><use
           id="use1044"
           inkscape:spray-origin="#rect1017"
           xlink:href="#rect1017"
           transform="matrix(0.85113136,0,0,0.85113136,-165.08199,-621.79654)" /><use
           id="use1045"
           inkscape:spray-origin="#rect1017"
           xlink:href="#rect1017"
           transform="matrix(1.1831311,0,0,1.1831311,-307.27694,-1135.4169)" /><use
           id="use1046"
           inkscape:spray-origin="#rect1017"
           xlink:href="#rect1017"
           transform="matrix(1.0425993,0,0,1.0425993,-248.52656,-1007.7437)" /><use
           id="use1047"
           inkscape:spray-origin="#rect1017"
           xlink:href="#rect1017"
           transform="matrix(1.0706767,0,0,1.0706767,-310.38789,-926.19928)" /><use
           id="use1048"
           inkscape:spray-origin="#rect1017"
           xlink:href="#rect1017"
           transform="matrix(0.76834112,0,0,0.76834112,-138.24205,-465.18667)" /></g><g
         id="g1062"
         transform="translate(115.72574,851.24806)"><use
           id="use1049"
           inkscape:spray-origin="#rect1017"
           xlink:href="#rect1017"
           transform="matrix(1.2869101,0,0,1.2869101,-178.27081,-1047.3848)" /><use
           id="use1050"
           inkscape:spray-origin="#rect1017"
           xlink:href="#rect1017"
           transform="matrix(1.2449741,0,0,1.2449741,-184.65667,-1268.572)" /><use
           id="use1051"
           inkscape:spray-origin="#rect1017"
           xlink:href="#rect1017"
           transform="matrix(1.0730394,0,0,1.0730394,-299.923,-933.07862)" /><use
           id="use1052"
           inkscape:spray-origin="#rect1017"
           xlink:href="#rect1017"
           transform="matrix(0.89078716,0,0,0.89078716,-209.42874,-665.56534)" /><use
           id="use1053"
           inkscape:spray-origin="#rect1017"
           xlink:href="#rect1017"
           transform="matrix(0.8908168,0,0,0.8908168,-191.15816,-608.21194)" /><use
           id="use1054"
           inkscape:spray-origin="#rect1017"
           xlink:href="#rect1017"
           transform="matrix(1.0117044,0,0,1.0117044,-177.9827,-855.91708)" /><use
           id="use1055"
           inkscape:spray-origin="#rect1017"
           xlink:href="#rect1017"
           transform="matrix(1.2516697,0,0,1.2516697,-224.87932,-1258.5678)" /><use
           id="use1056"
           inkscape:spray-origin="#rect1017"
           xlink:href="#rect1017"
           transform="matrix(0.90789045,0,0,0.90789045,-69.087268,-717.10389)" /><use
           id="use1057"
           inkscape:spray-origin="#rect1017"
           xlink:href="#rect1017"
           transform="matrix(0.89210353,0,0,0.89210353,-62.474842,-760.21846)" /><use
           id="use1058"
           inkscape:spray-origin="#rect1017"
           xlink:href="#rect1017"
           transform="matrix(0.85113136,0,0,0.85113136,-165.08199,-621.79654)" /><use
           id="use1059"
           inkscape:spray-origin="#rect1017"
           xlink:href="#rect1017"
           transform="matrix(1.1831311,0,0,1.1831311,-307.27694,-1135.4169)" /><use
           id="use1060"
           inkscape:spray-origin="#rect1017"
           xlink:href="#rect1017"
           transform="matrix(1.0425993,0,0,1.0425993,-248.52656,-1007.7437)" /><use
           id="use1061"
           inkscape:spray-origin="#rect1017"
           xlink:href="#rect1017"
           transform="matrix(1.0706767,0,0,1.0706767,-310.38789,-926.19928)" /><use
           id="use1062"
           inkscape:spray-origin="#rect1017"
           xlink:href="#rect1017"
           transform="matrix(0.76834112,0,0,0.76834112,-138.24205,-465.18667)" /></g><g
         id="g1076"
         transform="translate(193.81932,768.13663)"><use
           id="use1063"
           inkscape:spray-origin="#rect1017"
           xlink:href="#rect1017"
           transform="matrix(1.2869101,0,0,1.2869101,-178.27081,-1047.3848)" /><use
           id="use1064"
           inkscape:spray-origin="#rect1017"
           xlink:href="#rect1017"
           transform="matrix(1.2449741,0,0,1.2449741,-184.65667,-1268.572)" /><use
           id="use1065"
           inkscape:spray-origin="#rect1017"
           xlink:href="#rect1017"
           transform="matrix(1.0730394,0,0,1.0730394,-299.923,-933.07862)" /><use
           id="use1066"
           inkscape:spray-origin="#rect1017"
           xlink:href="#rect1017"
           transform="matrix(0.89078716,0,0,0.89078716,-209.42874,-665.56534)" /><use
           id="use1067"
           inkscape:spray-origin="#rect1017"
           xlink:href="#rect1017"
           transform="matrix(0.8908168,0,0,0.8908168,-191.15816,-608.21194)" /><use
           id="use1068"
           inkscape:spray-origin="#rect1017"
           xlink:href="#rect1017"
           transform="matrix(1.0117044,0,0,1.0117044,-177.9827,-855.91708)" /><use
           id="use1069"
           inkscape:spray-origin="#rect1017"
           xlink:href="#rect1017"
           transform="matrix(1.2516697,0,0,1.2516697,-224.87932,-1258.5678)" /><use
           id="use1070"
           inkscape:spray-origin="#rect1017"
           xlink:href="#rect1017"
           transform="matrix(0.90789045,0,0,0.90789045,-69.087268,-717.10389)" /><use
           id="use1071"
           inkscape:spray-origin="#rect1017"
           xlink:href="#rect1017"
           transform="matrix(0.89210353,0,0,0.89210353,-62.474842,-760.21846)" /><use
           id="use1072"
           inkscape:spray-origin="#rect1017"
           xlink:href="#rect1017"
           transform="matrix(0.85113136,0,0,0.85113136,-165.08199,-621.79654)" /><use
           id="use1073"
           inkscape:spray-origin="#rect1017"
           xlink:href="#rect1017"
           transform="matrix(1.1831311,0,0,1.1831311,-307.27694,-1135.4169)" /><use
           id="use1074"
           inkscape:spray-origin="#rect1017"
           xlink:href="#rect1017"
           transform="matrix(1.0425993,0,0,1.0425993,-248.52656,-1007.7437)" /><use
           id="use1075"
           inkscape:spray-origin="#rect1017"
           xlink:href="#rect1017"
           transform="matrix(1.0706767,0,0,1.0706767,-310.38789,-926.19928)" /><use
           id="use1076"
           inkscape:spray-origin="#rect1017"
           xlink:href="#rect1017"
           transform="matrix(0.76834112,0,0,0.76834112,-138.24205,-465.18667)" /></g><use
         x="0"
         y="0"
         xlink:href="#g1076"
         id="use1077" /><use
         x="0"
         y="0"
         xlink:href="#g1076"
         id="use1078"
         transform="matrix(-1,0,0,1,402.10036,10.233095)" /><use
         x="0"
         y="0"
         xlink:href="#g1076"
         id="use1079"
         transform="matrix(-1,0,0,1,402.10036,10.233095)" /><use
         x="0"
         y="0"
         xlink:href="#g1076"
         id="use1080"
         transform="matrix(-1,0,0,1,291.51367,151.81342)" /><use
         x="0"
         y="0"
         xlink:href="#g1076"
         id="use1081"
         transform="matrix(-1,0,0,1,291.51367,151.81342)" /><g
         id="g1095"
         transform="translate(213.86995,881.81921)"><use
           id="use1082"
           inkscape:spray-origin="#rect1017"
           xlink:href="#rect1017"
           transform="matrix(1.2869101,0,0,1.2869101,-178.27081,-1047.3848)" /><use
           id="use1083"
           inkscape:spray-origin="#rect1017"
           xlink:href="#rect1017"
           transform="matrix(1.2449741,0,0,1.2449741,-184.65667,-1268.572)" /><use
           id="use1084"
           inkscape:spray-origin="#rect1017"
           xlink:href="#rect1017"
           transform="matrix(1.0730394,0,0,1.0730394,-299.923,-933.07862)" /><use
           id="use1085"
           inkscape:spray-origin="#rect1017"
           xlink:href="#rect1017"
           transform="matrix(0.89078716,0,0,0.89078716,-209.42874,-665.56534)" /><use
           id="use1086"
           inkscape:spray-origin="#rect1017"
           xlink:href="#rect1017"
           transform="matrix(0.8908168,0,0,0.8908168,-191.15816,-608.21194)" /><use
           id="use1087"
           inkscape:spray-origin="#rect1017"
           xlink:href="#rect1017"
           transform="matrix(1.0117044,0,0,1.0117044,-177.9827,-855.91708)" /><use
           id="use1088"
           inkscape:spray-origin="#rect1017"
           xlink:href="#rect1017"
           transform="matrix(1.2516697,0,0,1.2516697,-224.87932,-1258.5678)" /><use
           id="use1089"
           inkscape:spray-origin="#rect1017"
           xlink:href="#rect1017"
           transform="matrix(0.90789045,0,0,0.90789045,-69.087268,-717.10389)" /><use
           id="use1090"
           inkscape:spray-origin="#rect1017"
           xlink:href="#rect1017"
           transform="matrix(0.89210353,0,0,0.89210353,-62.474842,-760.21846)" /><use
           id="use1091"
           inkscape:spray-origin="#rect1017"
           xlink:href="#rect1017"
           transform="matrix(0.85113136,0,0,0.85113136,-165.08199,-621.79654)" /><use
           id="use1092"
           inkscape:spray-origin="#rect1017"
           xlink:href="#rect1017"
           transform="matrix(1.1831311,0,0,1.1831311,-307.27694,-1135.4169)" /><use
           id="use1093"
           inkscape:spray-origin="#rect1017"
           xlink:href="#rect1017"
           transform="matrix(1.0425993,0,0,1.0425993,-248.52656,-1007.7437)" /><use
           id="use1094"
           inkscape:spray-origin="#rect1017"
           xlink:href="#rect1017"
           transform="matrix(1.0706767,0,0,1.0706767,-310.38789,-926.19928)" /><use
           id="use1095"
           inkscape:spray-origin="#rect1017"
           xlink:href="#rect1017"
           transform="matrix(0.76834112,0,0,0.76834112,-138.24205,-465.18667)" /></g><g
         id="g1109"
         transform="translate(213.86995,881.81921)"><use
           id="use1096"
           inkscape:spray-origin="#rect1017"
           xlink:href="#rect1017"
           transform="matrix(1.2869101,0,0,1.2869101,-178.27081,-1047.3848)" /><use
           id="use1097"
           inkscape:spray-origin="#rect1017"
           xlink:href="#rect1017"
           transform="matrix(1.2449741,0,0,1.2449741,-184.65667,-1268.572)" /><use
           id="use1098"
           inkscape:spray-origin="#rect1017"
           xlink:href="#rect1017"
           transform="matrix(1.0730394,0,0,1.0730394,-299.923,-933.07862)" /><use
           id="use1099"
           inkscape:spray-origin="#rect1017"
           xlink:href="#rect1017"
           transform="matrix(0.89078716,0,0,0.89078716,-209.42874,-665.56534)" /><use
           id="use1100"
           inkscape:spray-origin="#rect1017"
           xlink:href="#rect1017"
           transform="matrix(0.8908168,0,0,0.8908168,-191.15816,-608.21194)" /><use
           id="use1101"
           inkscape:spray-origin="#rect1017"
           xlink:href="#rect1017"
           transform="matrix(1.0117044,0,0,1.0117044,-177.9827,-855.91708)" /><use
           id="use1102"
           inkscape:spray-origin="#rect1017"
           xlink:href="#rect1017"
           transform="matrix(1.2516697,0,0,1.2516697,-224.87932,-1258.5678)" /><use
           id="use1103"
           inkscape:spray-origin="#rect1017"
           xlink:href="#rect1017"
           transform="matrix(0.90789045,0,0,0.90789045,-69.087268,-717.10389)" /><use
           id="use1104"
           inkscape:spray-origin="#rect1017"
           xlink:href="#rect1017"
           transform="matrix(0.89210353,0,0,0.89210353,-62.474842,-760.21846)" /><use
           id="use1105"
           inkscape:spray-origin="#rect1017"
           xlink:href="#rect1017"
           transform="matrix(0.85113136,0,0,0.85113136,-165.08199,-621.79654)" /><use
           id="use1106"
           inkscape:spray-origin="#rect1017"
           xlink:href="#rect1017"
           transform="matrix(1.1831311,0,0,1.1831311,-307.27694,-1135.4169)" /><use
           id="use1107"
           inkscape:spray-origin="#rect1017"
           xlink:href="#rect1017"
           transform="matrix(1.0425993,0,0,1.0425993,-248.52656,-1007.7437)" /><use
           id="use1108"
           inkscape:spray-origin="#rect1017"
           xlink:href="#rect1017"
           transform="matrix(1.0706767,0,0,1.0706767,-310.38789,-926.19928)" /><use
           id="use1109"
           inkscape:spray-origin="#rect1017"
           xlink:href="#rect1017"
           transform="matrix(0.76834112,0,0,0.76834112,-138.24205,-465.18667)" /></g></g><g
       id="g1185"
       transform="matrix(0.45826864,-0.14259527,0.29710987,0.9548433,-252.71916,38.870681)"
       style="opacity:0.534168;filter:url(#filter1260)"><g
         id="g1123"
         transform="translate(115.72574,851.24806)"><use
           id="use1110"
           inkscape:spray-origin="#rect1017"
           xlink:href="#rect1017"
           transform="matrix(1.2869101,0,0,1.2869101,-178.27081,-1047.3848)" /><use
           id="use1111"
           inkscape:spray-origin="#rect1017"
           xlink:href="#rect1017"
           transform="matrix(1.2449741,0,0,1.2449741,-184.65667,-1268.572)" /><use
           id="use1112"
           inkscape:spray-origin="#rect1017"
           xlink:href="#rect1017"
           transform="matrix(1.0730394,0,0,1.0730394,-299.923,-933.07862)" /><use
           id="use1113"
           inkscape:spray-origin="#rect1017"
           xlink:href="#rect1017"
           transform="matrix(0.89078716,0,0,0.89078716,-209.42874,-665.56534)" /><use
           id="use1114"
           inkscape:spray-origin="#rect1017"
           xlink:href="#rect1017"
           transform="matrix(0.8908168,0,0,0.8908168,-191.15816,-608.21194)" /><use
           id="use1115"
           inkscape:spray-origin="#rect1017"
           xlink:href="#rect1017"
           transform="matrix(1.0117044,0,0,1.0117044,-177.9827,-855.91708)" /><use
           id="use1116"
           inkscape:spray-origin="#rect1017"
           xlink:href="#rect1017"
           transform="matrix(1.2516697,0,0,1.2516697,-224.87932,-1258.5678)" /><use
           id="use1117"
           inkscape:spray-origin="#rect1017"
           xlink:href="#rect1017"
           transform="matrix(0.90789045,0,0,0.90789045,-69.087268,-717.10389)" /><use
           id="use1118"
           inkscape:spray-origin="#rect1017"
           xlink:href="#rect1017"
           transform="matrix(0.89210353,0,0,0.89210353,-62.474842,-760.21846)" /><use
           id="use1119"
           inkscape:spray-origin="#rect1017"
           xlink:href="#rect1017"
           transform="matrix(0.85113136,0,0,0.85113136,-165.08199,-621.79654)" /><use
           id="use1120"
           inkscape:spray-origin="#rect1017"
           xlink:href="#rect1017"
           transform="matrix(1.1831311,0,0,1.1831311,-307.27694,-1135.4169)" /><use
           id="use1121"
           inkscape:spray-origin="#rect1017"
           xlink:href="#rect1017"
           transform="matrix(1.0425993,0,0,1.0425993,-248.52656,-1007.7437)" /><use
           id="use1122"
           inkscape:spray-origin="#rect1017"
           xlink:href="#rect1017"
           transform="matrix(1.0706767,0,0,1.0706767,-310.38789,-926.19928)" /><use
           id="use1123"
           inkscape:spray-origin="#rect1017"
           xlink:href="#rect1017"
           transform="matrix(0.76834112,0,0,0.76834112,-138.24205,-465.18667)" /></g><g
         id="g1137"
         transform="translate(115.72574,851.24806)"><use
           id="use1124"
           inkscape:spray-origin="#rect1017"
           xlink:href="#rect1017"
           transform="matrix(1.2869101,0,0,1.2869101,-178.27081,-1047.3848)" /><use
           id="use1125"
           inkscape:spray-origin="#rect1017"
           xlink:href="#rect1017"
           transform="matrix(1.2449741,0,0,1.2449741,-184.65667,-1268.572)" /><use
           id="use1126"
           inkscape:spray-origin="#rect1017"
           xlink:href="#rect1017"
           transform="matrix(1.0730394,0,0,1.0730394,-299.923,-933.07862)" /><use
           id="use1127"
           inkscape:spray-origin="#rect1017"
           xlink:href="#rect1017"
           transform="matrix(0.89078716,0,0,0.89078716,-209.42874,-665.56534)" /><use
           id="use1128"
           inkscape:spray-origin="#rect1017"
           xlink:href="#rect1017"
           transform="matrix(0.8908168,0,0,0.8908168,-191.15816,-608.21194)" /><use
           id="use1129"
           inkscape:spray-origin="#rect1017"
           xlink:href="#rect1017"
           transform="matrix(1.0117044,0,0,1.0117044,-177.9827,-855.91708)" /><use
           id="use1130"
           inkscape:spray-origin="#rect1017"
           xlink:href="#rect1017"
           transform="matrix(1.2516697,0,0,1.2516697,-224.87932,-1258.5678)" /><use
           id="use1131"
           inkscape:spray-origin="#rect1017"
           xlink:href="#rect1017"
           transform="matrix(0.90789045,0,0,0.90789045,-69.087268,-717.10389)" /><use
           id="use1132"
           inkscape:spray-origin="#rect1017"
           xlink:href="#rect1017"
           transform="matrix(0.89210353,0,0,0.89210353,-62.474842,-760.21846)" /><use
           id="use1133"
           inkscape:spray-origin="#rect1017"
           xlink:href="#rect1017"
           transform="matrix(0.85113136,0,0,0.85113136,-165.08199,-621.79654)" /><use
           id="use1134"
           inkscape:spray-origin="#rect1017"
           xlink:href="#rect1017"
           transform="matrix(1.1831311,0,0,1.1831311,-307.27694,-1135.4169)" /><use
           id="use1135"
           inkscape:spray-origin="#rect1017"
           xlink:href="#rect1017"
           transform="matrix(1.0425993,0,0,1.0425993,-248.52656,-1007.7437)" /><use
           id="use1136"
           inkscape:spray-origin="#rect1017"
           xlink:href="#rect1017"
           transform="matrix(1.0706767,0,0,1.0706767,-310.38789,-926.19928)" /><use
           id="use1137"
           inkscape:spray-origin="#rect1017"
           xlink:href="#rect1017"
           transform="matrix(0.76834112,0,0,0.76834112,-138.24205,-465.18667)" /></g><g
         id="g1151"
         transform="translate(193.81932,768.13663)"><use
           id="use1138"
           inkscape:spray-origin="#rect1017"
           xlink:href="#rect1017"
           transform="matrix(1.2869101,0,0,1.2869101,-178.27081,-1047.3848)" /><use
           id="use1139"
           inkscape:spray-origin="#rect1017"
           xlink:href="#rect1017"
           transform="matrix(1.2449741,0,0,1.2449741,-184.65667,-1268.572)" /><use
           id="use1140"
           inkscape:spray-origin="#rect1017"
           xlink:href="#rect1017"
           transform="matrix(1.0730394,0,0,1.0730394,-299.923,-933.07862)" /><use
           id="use1141"
           inkscape:spray-origin="#rect1017"
           xlink:href="#rect1017"
           transform="matrix(0.89078716,0,0,0.89078716,-209.42874,-665.56534)" /><use
           id="use1142"
           inkscape:spray-origin="#rect1017"
           xlink:href="#rect1017"
           transform="matrix(0.8908168,0,0,0.8908168,-191.15816,-608.21194)" /><use
           id="use1143"
           inkscape:spray-origin="#rect1017"
           xlink:href="#rect1017"
           transform="matrix(1.0117044,0,0,1.0117044,-177.9827,-855.91708)" /><use
           id="use1144"
           inkscape:spray-origin="#rect1017"
           xlink:href="#rect1017"
           transform="matrix(1.2516697,0,0,1.2516697,-224.87932,-1258.5678)" /><use
           id="use1145"
           inkscape:spray-origin="#rect1017"
           xlink:href="#rect1017"
           transform="matrix(0.90789045,0,0,0.90789045,-69.087268,-717.10389)" /><use
           id="use1146"
           inkscape:spray-origin="#rect1017"
           xlink:href="#rect1017"
           transform="matrix(0.89210353,0,0,0.89210353,-62.474842,-760.21846)" /><use
           id="use1147"
           inkscape:spray-origin="#rect1017"
           xlink:href="#rect1017"
           transform="matrix(0.85113136,0,0,0.85113136,-165.08199,-621.79654)" /><use
           id="use1148"
           inkscape:spray-origin="#rect1017"
           xlink:href="#rect1017"
           transform="matrix(1.1831311,0,0,1.1831311,-307.27694,-1135.4169)" /><use
           id="use1149"
           inkscape:spray-origin="#rect1017"
           xlink:href="#rect1017"
           transform="matrix(1.0425993,0,0,1.0425993,-248.52656,-1007.7437)" /><use
           id="use1150"
           inkscape:spray-origin="#rect1017"
           xlink:href="#rect1017"
           transform="matrix(1.0706767,0,0,1.0706767,-310.38789,-926.19928)" /><use
           id="use1151"
           inkscape:spray-origin="#rect1017"
           xlink:href="#rect1017"
           transform="matrix(0.76834112,0,0,0.76834112,-138.24205,-465.18667)" /></g><use
         x="0"
         y="0"
         xlink:href="#g1076"
         id="use1152" /><use
         x="0"
         y="0"
         xlink:href="#g1076"
         id="use1153"
         transform="matrix(-1,0,0,1,402.10036,10.233095)" /><use
         x="0"
         y="0"
         xlink:href="#g1076"
         id="use1154"
         transform="matrix(-1,0,0,1,402.10036,10.233095)" /><use
         x="0"
         y="0"
         xlink:href="#g1076"
         id="use1155"
         transform="matrix(-1,0,0,1,291.51367,151.81342)" /><use
         x="0"
         y="0"
         xlink:href="#g1076"
         id="use1156"
         transform="matrix(-1,0,0,1,291.51367,151.81342)" /><g
         id="g1170"
         transform="translate(213.86995,881.81921)"><use
           id="use1157"
           inkscape:spray-origin="#rect1017"
           xlink:href="#rect1017"
           transform="matrix(1.2869101,0,0,1.2869101,-178.27081,-1047.3848)" /><use
           id="use1158"
           inkscape:spray-origin="#rect1017"
           xlink:href="#rect1017"
           transform="matrix(1.2449741,0,0,1.2449741,-184.65667,-1268.572)" /><use
           id="use1159"
           inkscape:spray-origin="#rect1017"
           xlink:href="#rect1017"
           transform="matrix(1.0730394,0,0,1.0730394,-299.923,-933.07862)" /><use
           id="use1160"
           inkscape:spray-origin="#rect1017"
           xlink:href="#rect1017"
           transform="matrix(0.89078716,0,0,0.89078716,-209.42874,-665.56534)" /><use
           id="use1161"
           inkscape:spray-origin="#rect1017"
           xlink:href="#rect1017"
           transform="matrix(0.8908168,0,0,0.8908168,-191.15816,-608.21194)" /><use
           id="use1162"
           inkscape:spray-origin="#rect1017"
           xlink:href="#rect1017"
           transform="matrix(1.0117044,0,0,1.0117044,-177.9827,-855.91708)" /><use
           id="use1163"
           inkscape:spray-origin="#rect1017"
           xlink:href="#rect1017"
           transform="matrix(1.2516697,0,0,1.2516697,-224.87932,-1258.5678)" /><use
           id="use1164"
           inkscape:spray-origin="#rect1017"
           xlink:href="#rect1017"
           transform="matrix(0.90789045,0,0,0.90789045,-69.087268,-717.10389)" /><use
           id="use1165"
           inkscape:spray-origin="#rect1017"
           xlink:href="#rect1017"
           transform="matrix(0.89210353,0,0,0.89210353,-62.474842,-760.21846)" /><use
           id="use1166"
           inkscape:spray-origin="#rect1017"
           xlink:href="#rect1017"
           transform="matrix(0.85113136,0,0,0.85113136,-165.08199,-621.79654)" /><use
           id="use1167"
           inkscape:spray-origin="#rect1017"
           xlink:href="#rect1017"
           transform="matrix(1.1831311,0,0,1.1831311,-307.27694,-1135.4169)" /><use
           id="use1168"
           inkscape:spray-origin="#rect1017"
           xlink:href="#rect1017"
           transform="matrix(1.0425993,0,0,1.0425993,-248.52656,-1007.7437)" /><use
           id="use1169"
           inkscape:spray-origin="#rect1017"
           xlink:href="#rect1017"
           transform="matrix(1.0706767,0,0,1.0706767,-310.38789,-926.19928)" /><use
           id="use1170"
           inkscape:spray-origin="#rect1017"
           xlink:href="#rect1017"
           transform="matrix(0.76834112,0,0,0.76834112,-138.24205,-465.18667)" /></g><g
         id="g1184"
         transform="translate(213.86995,881.81921)"><use
           id="use1171"
           inkscape:spray-origin="#rect1017"
           xlink:href="#rect1017"
           transform="matrix(1.2869101,0,0,1.2869101,-178.27081,-1047.3848)" /><use
           id="use1172"
           inkscape:spray-origin="#rect1017"
           xlink:href="#rect1017"
           transform="matrix(1.2449741,0,0,1.2449741,-184.65667,-1268.572)" /><use
           id="use1173"
           inkscape:spray-origin="#rect1017"
           xlink:href="#rect1017"
           transform="matrix(1.0730394,0,0,1.0730394,-299.923,-933.07862)" /><use
           id="use1174"
           inkscape:spray-origin="#rect1017"
           xlink:href="#rect1017"
           transform="matrix(0.89078716,0,0,0.89078716,-209.42874,-665.56534)" /><use
           id="use1175"
           inkscape:spray-origin="#rect1017"
           xlink:href="#rect1017"
           transform="matrix(0.8908168,0,0,0.8908168,-191.15816,-608.21194)" /><use
           id="use1176"
           inkscape:spray-origin="#rect1017"
           xlink:href="#rect1017"
           transform="matrix(1.0117044,0,0,1.0117044,-177.9827,-855.91708)" /><use
           id="use1177"
           inkscape:spray-origin="#rect1017"
           xlink:href="#rect1017"
           transform="matrix(1.2516697,0,0,1.2516697,-224.87932,-1258.5678)" /><use
           id="use1178"
           inkscape:spray-origin="#rect1017"
           xlink:href="#rect1017"
           transform="matrix(0.90789045,0,0,0.90789045,-69.087268,-717.10389)" /><use
           id="use1179"
           inkscape:spray-origin="#rect1017"
           xlink:href="#rect1017"
           transform="matrix(0.89210353,0,0,0.89210353,-62.474842,-760.21846)" /><use
           id="use1180"
           inkscape:spray-origin="#rect1017"
           xlink:href="#rect1017"
           transform="matrix(0.85113136,0,0,0.85113136,-165.08199,-621.79654)" /><use
           id="use1181"
           inkscape:spray-origin="#rect1017"
           xlink:href="#rect1017"
           transform="matrix(1.1831311,0,0,1.1831311,-307.27694,-1135.4169)" /><use
           id="use1182"
           inkscape:spray-origin="#rect1017"
           xlink:href="#rect1017"
           transform="matrix(1.0425993,0,0,1.0425993,-248.52656,-1007.7437)" /><use
           id="use1183"
           inkscape:spray-origin="#rect1017"
           xlink:href="#rect1017"
           transform="matrix(1.0706767,0,0,1.0706767,-310.38789,-926.19928)" /><use
           id="use1184"
           inkscape:spray-origin="#rect1017"
           xlink:href="#rect1017"
           transform="matrix(0.76834112,0,0,0.76834112,-138.24205,-465.18667)" /></g></g><rect
       style="opacity:0.534168;fill:#000000;stroke-width:0.0690501"
       id="rect1503"
       width="300"
       height="300"
       x="76.675362"
       y="841.62451" /></g></svg>
